Place,Name,BirthYear,Country,BodyweightKg,Squat1Kg,Squat2Kg,Squat3Kg,Best3SquatKg,Bench1Kg,Bench2Kg,Bench3Kg,Best3BenchKg,Deadlift1Kg,Deadlift2Kg,Deadlift3Kg,Best3DeadliftKg,TotalKg,WeightClassKg,Division,Sex,Equipment,Event
1,Sergey Fedosienko,1982,RUS,58.48,205,220,227.5,227.5,155,165,171,171,240,260,271,271,669.5,59,Open,M,Raw,SBD
2,Franklin León,1983,ECU,58.8,205,215,222.5,222.5,130,140,-145,140,215,225,-232.5,225,587.5,59,Open,M,Raw,SBD
3,Dariusz Wszoła,1978,POL,58.58,200,210,215,215,140,145,150,150,195,205,212.5,212.5,577.5,59,Open,M,Raw,SBD
4,Mohamed Lakehal,1982,ALG,59,207.5,220,-226.5,220,110,-115,-115,110,230,240,-250,240,570,59,Open,M,Raw,SBD
5,Shawn Frasquillo,1986,USA,58.38,167.5,175,-180,175,130,137.5,142.5,142.5,215,225,230,230,547.5,59,Open,M,Raw,SBD
6,Takaharu Ebihara,1980,JPN,58.48,180,190,192.5,192.5,130,-140,140,140,195,-207.5,207.5,207.5,540,59,Open,M,Raw,SBD
7,Walter Gómez,1989,ECU,58.84,160,170,180,180,122.5,-127.5,127.5,127.5,205,215,-232.5,215,522.5,59,Open,M,Raw,SBD
8,Noel Whelan,1983,IRL,58.46,170,175,-177.5,175,107.5,112.5,-117.5,112.5,182.5,187.5,192.5,192.5,480,59,Open,M,Raw,SBD
DQ,Azamat Alymbek Uulu,1992,KGZ,58.98,160,-167.5,,160,120,,,120,-242.5,-242.5,-242.5,,,59,Open,M,Raw,SBD
1,Sergey Gladkikh,1989,RUS,65.5,225,235,245,245,145,155,160,160,250,260,265,265,670,66,Open,M,Raw,SBD
2,Keith McHoney,1985,USA,64.88,220,235,-242.5,235,137.5,145,150,150,250,262.5,272.5,272.5,657.5,66,Open,M,Raw,SBD
3,Tsung-Ting Hsieh,1982,TPE,64.88,215,225,230,230,-155,155,157.5,157.5,250,262.5,267.5,267.5,655,66,Open,M,Raw,SBD
4,Stephen Cascioli,1991,CAN,65.68,227.5,237.5,245.5,245.5,145,152.5,155,155,-240,240,-255,240,640.5,66,Open,M,Raw,SBD
5,Antti Savolainen,1978,FIN,65.84,205,212.5,-217.5,212.5,150,155,-157.5,155,265,-270,-279,265,632.5,66,Open,M,Raw,SBD
6,John Paul Cauchi,1992,AUS,65.84,205,217.5,222.5,222.5,115,-122.5,122.5,122.5,262.5,278.5,282.5,282.5,627.5,66,Open,M,Raw,SBD
7,Tomáš Juříček,1992,CZE,65.88,197.5,-210,-210,197.5,140,147.5,-155,147.5,225,242.5,-255,242.5,587.5,66,Open,M,Raw,SBD
8,Randy Loke,1991,SIN,65.16,170,177.5,182.5,182.5,120,125,-127.5,125,235,245,255,255,562.5,66,Open,M,Raw,SBD
9,Andrew Dawes,1991,GBR,65.14,190,200,-202.5,200,112.5,117.5,125,125,200,210,217.5,217.5,542.5,66,Open,M,Raw,SBD
10,Givi Margvelashvili,1989,GEO,65.38,160,180,-190,180,130,-145,-145,130,200,220,-232.5,220,530,66,Open,M,Raw,SBD
11,Jaime Barrera,1991,MEX,62.68,125,135,142.5,142.5,105,110,-115,110,190,-200,-200,190,442.5,66,Open,M,Raw,SBD
DQ,Sebastien Villagra,1986,ARG,65.58,220,227.5,-232.5,227.5,135,140,-145,140,-225,-225,-225,,,66,Open,M,Raw,SBD
1,Aliaksandr Hrynkevich-Sudnik,1976,BLR,73.76,242.5,252.5,257.5,257.5,160,165,170,170,285,297.5,302.5,302.5,730,74,Open,M,Raw,SBD
2,Taylor Atwood,1988,USA,73.74,230,245,255,255,172.5,182.5,190,190,262.5,277.5,-290,277.5,722.5,74,Open,M,Raw,SBD
3,Pavel Marda,1990,KAZ,73.98,240,250,257.5,257.5,180,185,-187.5,185,275,-282.5,-285,275,717.5,74,Open,M,Raw,SBD
4,Andrey Prokopenko,1988,KAZ,73.12,242.5,-247.5,-247.5,242.5,-162.5,162.5,-167.5,162.5,280,292.5,-302.5,292.5,697.5,74,Open,M,Raw,SBD
5,Connor Lutz,1990,CAN,73.38,225,237.5,242.5,242.5,170,180,187.5,187.5,235,250,260,260,690,74,Open,M,Raw,SBD
6,Sami Nieminen,1975,FIN,73.86,217.5,225,230,230,147.5,152.5,-155,152.5,285,300,-311,300,682.5,74,Open,M,Raw,SBD
7,Hassan El Belghiti,1975,FRA,72.3,227.5,235,-240,235,135,140,-145,140,285,300,-305,300,675,74,Open,M,Raw,SBD
8,Hugo Salhuana Moscoso,1990,PER,72.18,225,230,235,235,145,152.5,157.5,157.5,252.5,262.5,270,270,662.5,74,Open,M,Raw,SBD
9,Isaac Ndombou,1981,CMR,72.95,230,240,-247.5,240,-160,-160,160,160,260,-270,-270,260,660,74,Open,M,Raw,SBD
10,John Strachan,1988,NZL,72.88,205,217.5,222.5,222.5,145,150,-155,150,245,-265,265,265,637.5,74,Open,M,Raw,SBD
11,Andrew Ramsay,1988,RSA,73.64,190,202.5,207.5,207.5,125,-130,-130,125,235,245,252.5,252.5,585,74,Open,M,Raw,SBD
12,Jonathan Kariv,1983,RSA,73.62,180,185,-190,185,130,137.5,140,140,220,-225,-225,220,545,74,Open,M,Raw,SBD
13,Esteban Castro,1987,CRC,72.6,190,200,-210,200,110,-117.5,-117.5,110,200,220,-227.5,220,530,74,Open,M,Raw,SBD
14,Levon Kocharyan,1985,ARM,73.16,180,-190,-190,180,150,157.5,-165,157.5,180,-190,,180,517.5,74,Open,M,Raw,SBD
DQ,Rabah El Fekair,1987,ALG,73.94,247.5,257.5,-262.5,257.5,150,157.5,160,160,-290,-290,-290,,,74,Open,M,Raw,SBD
1,John Haack,1993,USA,82.8,270,285,298,298,185,195,200,200,292.5,310,315,315,813,83,Open,M,Raw,SBD
2,Brett Gibbs,1991,NZL,82.56,277.5,-285,-288,277.5,-190,195,208,208,285,305,-327.5,305,790.5,83,Open,M,Raw,SBD
3,Owen Hubbard,1992,GBR,81.96,255,265,270,270,195,202.5,-208.5,202.5,255,265,272.5,272.5,745,83,Open,M,Raw,SBD
4,Jacek Spychala,1978,POL,82.72,245,-255,255,255,165,172.5,177.5,177.5,-290,300,-315,300,732.5,83,Open,M,Raw,SBD
5,Daniel Carvalho,1991,BRA,82.64,235,-245,-245,235,182.5,187.5,-192.5,187.5,280,295,-305,295,717.5,83,Open,M,Raw,SBD
6,Amir Fazeli,1986,AUS,82.38,242.5,-252.5,-252.5,242.5,137.5,145,147.5,147.5,302.5,-317.5,317.5,317.5,707.5,83,Open,M,Raw,SBD
7,Romain Picot-Guéraud,1987,FRA,82.5,252.5,-262.5,-262.5,252.5,160,167.5,-172.5,167.5,265,280,-290,280,700,83,Open,M,Raw,SBD
8,M Melyan Mawia Majdi Naser,1991,LBA,81.14,210,230,250,250,130,145,147.5,147.5,250,270,280,280,677.5,83,Open,M,Raw,SBD
9,Daniel Bedford,1990,GBR,82.78,220,230,-237.5,230,140,150,-155,150,250,262.5,-277.5,262.5,642.5,83,Open,M,Raw,SBD
10,Sergey Asaturov,1984,ARM,81.72,190,200,-210,200,160,170,-175,170,220,230,-240,230,600,83,Open,M,Raw,SBD
11,Juan Tamayo,1986,MEX,81.62,212.5,222.5,227.5,227.5,120,-125,125,125,217.5,225,-227.5,225,577.5,83,Open,M,Raw,SBD
DQ,Oscar Barrera,1985,MEX,81.34,180,-190,-200,180,110,115,-120,115,,,,,,83,Open,M,Raw,SBD
1,Mikhaylo Bulanyy,1975,UKR,92.5,295,305,-310.5,305,190,200,210,210,310,325,-335,325,840,93,Open,M,Raw,SBD
2,Borislav Adov,1987,BUL,92.92,282.5,290,-295,290,200,-205,205,205,300,310,320,320,815,93,Open,M,Raw,SBD
3,Ali Ben Hadj Ali,1989,FRA,92.76,270,285,-292.5,285,170,-180,-180,170,315,330,335,335,790,93,Open,M,Raw,SBD
4,Krzysztof Wierzbicki,1990,POL,92.52,200,220,-250,220,175,182.5,187.5,187.5,360,-377.5,-382.5,360,767.5,93,Open,M,Raw,SBD
5,Amar Kanane,1987,ALG,92.66,275,290,300,300,162.5,172.5,-177.5,172.5,290,-310,-315,290,762.5,93,Open,M,Raw,SBD
6,William Phillips,1986,AUS,92.6,220,232.5,242.5,242.5,182.5,192.5,-200,192.5,287.5,305,315,315,750,93,Open,M,Raw,SBD
7,Walter Cariazo,1988,CAN,92.4,242.5,250,-255,250,162.5,170,-175,170,295,310,317.5,317.5,737.5,93,Open,M,Raw,SBD
8,Chin-Chia Yang,1991,TPE,91.68,-245,245,-270,245,-185,185,-192.5,185,285,300,-315,300,730,93,Open,M,Raw,SBD
9,Arthur Lynch,1992,IRL,90.62,225,235,240,240,160,167.5,-172.5,167.5,275,290,297.5,297.5,705,93,Open,M,Raw,SBD
10,Nicki Lentz,1992,DEN,90.64,-255,255,270,270,155,165,-170,165,240,250,262.5,262.5,697.5,93,Open,M,Raw,SBD
11,Robert Rogers,1989,GBR,91.16,235,247.5,-255,247.5,145,152.5,157.5,157.5,270,282.5,-287.5,282.5,687.5,93,Open,M,Raw,SBD
12,Jason Coultam,1990,GBR,91.2,237.5,247.5,-255,247.5,140,147.5,152.5,152.5,255,270,282.5,282.5,682.5,93,Open,M,Raw,SBD
13,Battumur Khumuugul,1974,MGL,92.76,200,220,240,240,195,207.5,212.5,212.5,190,210,-230,210,662.5,93,Open,M,Raw,SBD
DD,Jose Mendoza,1982,MEX,91.64,220,230,-240,230,140,150,-155,150,230,-240,-250,230,,93,Open,M,Raw,SBD
14,Mohamed Marie,1977,EGY,90.64,190,200,-210,200,130,140,-145,140,230,240,245,245,585,93,Open,M,Raw,SBD
DQ,Chris Bennett,1984,NZL,90.8,160,170,180,180,-160,-160,-160,,270,-280,-280,270,,93,Open,M,Raw,SBD
DQ,Rory Girvan,1985,IRL,92.56,-275,-275,-275,,140,,,140,-275,290,-305,290,,93,Open,M,Raw,SBD
1,Eli Burks,1987,USA,104.1,272.5,290,300,300,175,185,192.5,192.5,332.5,352.5,-368.5,352.5,845,105,Open,M,Raw,SBD
2,Bryce Krawczyk,1987,CAN,103.3,280,295,307.5,307.5,162.5,170,175,175,330,350,357.5,357.5,840,105,Open,M,Raw,SBD
3,Zalim Kuvambaev,1986,KAZ,104.9,-290,295,302.5,302.5,202.5,210,-215,210,-315,315,327.5,327.5,840,105,Open,M,Raw,SBD
4,Stephen Manuel,1988,GBR,104.3,302.5,320,325,325,192.5,202.5,207.5,207.5,305,-320,-320,305,837.5,105,Open,M,Raw,SBD
5,Sofiane Belkesir,1984,FRA,104.8,292.5,-302.5,-302.5,292.5,200,207.5,-212.5,207.5,320,-330,-335,320,820,105,Open,M,Raw,SBD
6,Ahmeed Mohamed Abdulla Mohamed,1988,LBA,104.9,280,300,-307.5,300,180,187.5,-190,187.5,310,330,-347.5,330,817.5,105,Open,M,Raw,SBD
7,Sen Yang,1994,TPE,104.4,300,307.5,310,310,195,-205,207.5,207.5,290,-302.5,-302.5,290,807.5,105,Open,M,Raw,SBD
8,Marcin Golen,1983,POL,104.1,270,280,-290,280,180,190,195,195,310,330,-345,330,805,105,Open,M,Raw,SBD
9,Yusuke Takeda,1985,JPN,102.8,275,290,-305,290,195,205,212.5,212.5,260,280,300,300,802.5,105,Open,M,Raw,SBD
10,Mikael Gullander,1983,SWE,104.6,265,280,-290,280,185,192.5,-195,192.5,300,312.5,-325,312.5,785,105,Open,M,Raw,SBD
11,Archili Shasurashvili,1989,GEO,104.8,280,302.5,310,310,180,200,-205,200,260,-290,,260,770,105,Open,M,Raw,SBD
12,Luis Zouein,1991,BRA,104.3,255,262.5,267.5,267.5,182.5,187.5,-190,187.5,280,297.5,-307.5,297.5,752.5,105,Open,M,Raw,SBD
13,Nicholas Deetlefs,1984,RSA,104.5,-255,255,-265,255,190,197.5,-202.5,197.5,260,275,290,290,742.5,105,Open,M,Raw,SBD
14,Michael Bruce,1986,IRL,102.4,265,275,-290,275,150,157.5,162.5,162.5,280,295,-312.5,295,732.5,105,Open,M,Raw,SBD
15,Thomas Brannick,1992,GBR,103.1,235,247.5,257.5,257.5,172.5,180,-187.5,180,275,287.5,-292.5,287.5,725,105,Open,M,Raw,SBD
16,Samuel Rodriguez,1986,MEX,97.7,220,240,-250,240,150,-165,165,165,270,287.5,-295,287.5,692.5,105,Open,M,Raw,SBD
17,Yuki Hirai,1984,JPN,103.9,230,240,-245,240,170,175,-177.5,175,250,270,-280,270,685,105,Open,M,Raw,SBD
18,Michael Fernandez Barrantes,1982,CRC,105,240,-255,255,255,140,155,-162.5,155,240,-260,-260,240,650,105,Open,M,Raw,SBD
19,Andrew Richardson,1994,IRL,103.2,220,230,240,240,120,127.5,135,135,245,255,-260,255,630,105,Open,M,Raw,SBD
1,Dennis Cornelius,1980,USA,118.98,342.5,362.5,378,378,235,245,253,253,317.5,335,347.5,347.5,978.5,120,Open,M,Raw,SBD
2,Mohamed Bouafia,1976,ALG,119.6,350,365,-378.5,365,200,210,215,215,340,350,360,360,940,120,Open,M,Raw,SBD
3,Tony Cliffe,1984,GBR,118.8,310,325,332.5,332.5,215,227.5,232.5,232.5,335,345,-352.5,345,910,120,Open,M,Raw,SBD
4,Erik Willis,1990,CAN,118.38,292.5,-302.5,302.5,302.5,210,217.5,-225,217.5,335,345,-352.5,345,865,120,Open,M,Raw,SBD
5,Maris Juzups,1988,LAT,119.72,300,320,327.5,327.5,220,230,-235,230,250,270,,270,827.5,120,Open,M,Raw,SBD
6,Pavol Demčák,1977,CZE,119.62,265,275,285,285,217.5,-225,-225,217.5,270,285,-297.5,285,787.5,120,Open,M,Raw,SBD
7,Adrian Locke,1990,CAN,111.06,280,292.5,-297.5,292.5,170,180,187.5,187.5,265,282.5,-290,282.5,762.5,120,Open,M,Raw,SBD
8,Carlos Manuel Campos Murillo,1979,CRC,118.58,275,290,-305,290,-170,170,-180,170,300,-320,-320,300,760,120,Open,M,Raw,SBD
9,Gerard Correia,1978,RSA,116.6,230,240,-250,240,200,207.5,-212.5,207.5,280,300,-322.5,300,747.5,120,Open,M,Raw,SBD
DQ,Chimedtseren Bataa,1981,MGL,119.4,240,250,,250,202.5,-212.5,-212.5,202.5,,,,,,120,Open,M,Raw,SBD
1,Ray Williams,1986,USA,184.6,392.5,415,438,438,225,235,245,245,340,360,-375.5,360,1043,120+,Open,M,Raw,SBD
2,Jezza Uepa,1980,NRU,180.4,410,426.5,-430,426.5,-250,250,260,260,305,315,320,320,1006.5,120+,Open,M,Raw,SBD
3,Kelly Branton,1986,CAN,159.18,385,410,-415,410,235,245,252.5,252.5,300,315,322.5,322.5,985,120+,Open,M,Raw,SBD
4,Martins Kruze,1988,LAT,159.42,375,400,,400,217.5,227.5,230,230,320,335,-357.5,335,965,120+,Open,M,Raw,SBD
5,James Heely,1982,USA,158.56,307.5,330,347.5,347.5,225,240,250,250,320,342.5,355,355,952.5,120+,Open,M,Raw,SBD
6,Oliva Kirisome,1985,SAM,178.4,350,-375,380,380,220,-230,-230,220,-325,325,-340,325,925,120+,Open,M,Raw,SBD
7,Ilyes Boughalem,1987,ALG,150.1,300,325,-340,325,265,275,-283,275,270,290,300,300,900,120+,Open,M,Raw,SBD
8,Martin Borgland Rønning,1984,NOR,166.6,315,327.5,335,335,245,-250,-250,245,295,302.5,,302.5,882.5,120+,Open,M,Raw,SBD
9,Tony Reinmuth,1989,AUS,151.3,322.5,340,347.5,347.5,200,-207.5,-207.5,200,307.5,320,-330,320,867.5,120+,Open,M,Raw,SBD
10,Antti Tommila,1989,FIN,146.04,300,315,320,320,215,222.5,-225,222.5,300,320,-327.5,320,862.5,120+,Open,M,Raw,SBD
11,Brad Kleefeld,1978,CAN,148.54,310,330,-340,330,200,207.5,-215,207.5,290,310,-315,310,847.5,120+,Open,M,Raw,SBD
12,Jari Saario,1985,FIN,129.56,290,302.5,307.5,307.5,182.5,185,190,190,320,345,-350,345,842.5,120+,Open,M,Raw,SBD
13,Christophe Rebreyend,1988,NED,152.82,300,310,-315,310,185,192.5,-195,192.5,320,337.5,-342.5,337.5,840,120+,Open,M,Raw,SBD
14,Nodar Tatishvili,1988,GEO,151.22,260,275,285,285,170,-180,185,185,270,280,285,285,755,120+,Open,M,Raw,SBD
15,Lepeka Nanai,1979,AUS,126.72,230,250,260,260,192.5,202.5,207.5,207.5,260,-280,-280,260,727.5,120+,Open,M,Raw,SBD
16,Ankhbayar Damdin,1979,MGL,141.68,265,277.5,290,290,200,-212.5,-212.5,200,220,,,220,710,120+,Open,M,Raw,SBD
17,Akira Ebita,1979,JPN,132.44,220,240,255,255,152.5,162.5,170,170,235,255,270,270,695,120+,Open,M,Raw,SBD
18,Jaroslav Jirout,1980,CZE,125.34,230,250,265,265,135,145,-150,145,250,270,-285,270,680,120+,Open,M,Raw,SBD
1,Aziz Farooqi,1998,JPN,52.76,130,140,145,145,72.5,80,,80,155,165,-170,165,390,53,Sub-Juniors,M,Raw,SBD
1,Dmitriy Chebanov,1999,KAZ,58.64,160,170,177.5,177.5,125,127.5,-130,127.5,185,195,200,200,505,59,Sub-Juniors,M,Raw,SBD
2,Kaiti Tentau,1998,KIR,58.8,170,182.5,-193,182.5,90,97.5,-102.5,97.5,187.5,197.5,200.5,200.5,480.5,59,Sub-Juniors,M,Raw,SBD
3,Diego Soria,1998,ECU,58.88,155,165,-170,165,100,105,-110,105,185,195,-201,195,465,59,Sub-Juniors,M,Raw,SBD
4,Atsushi Morita,1998,JPN,58.78,135,145,155,155,110,-115,-115,110,160,170,180,180,445,59,Sub-Juniors,M,Raw,SBD
5,Henry Diers,1999,USA,58.76,147.5,155,-157.5,155,82.5,87.5,92.5,92.5,175,182.5,-185,182.5,430,59,Sub-Juniors,M,Raw,SBD
6,Dermot O'Rourke,1998,IRL,57.7,132.5,137.5,142.5,142.5,80,85,-90,85,155,162.5,165,165,392.5,59,Sub-Juniors,M,Raw,SBD
7,Zachary Morgan,2000,USA,58.2,112.5,117.5,122.5,122.5,67.5,72.5,75,75,145,155,165,165,362.5,59,Sub-Juniors,M,Raw,SBD
8,Kensuke Matsuyama,1998,JPN,57.66,100,105,110,110,65,70,75,75,140,150,152.5,152.5,337.5,59,Sub-Juniors,M,Raw,SBD
DQ,Riley Bullett,1999,CAN,55.78,-150,-150,150,150,95,-102.5,-102.5,95,-182.5,-182.5,-182.5,,,59,Sub-Juniors,M,Raw,SBD
1,Hamza Anwar,1998,USA,65.22,190,200,-208,200,107.5,112.5,117.5,117.5,210,220,225,225,542.5,66,Sub-Juniors,M,Raw,SBD
2,Hakim Riahi,1998,ALG,65.36,175,185,190,190,90,95,-97.5,95,225,240,-258,240,525,66,Sub-Juniors,M,Raw,SBD
3,Edgars Jurkans,1998,LAT,65.82,160,167.5,172.5,172.5,120,127.5,132.5,132.5,205,212.5,-217.5,212.5,517.5,66,Sub-Juniors,M,Raw,SBD
4,Michal Skonieczny,1998,POL,65.62,165,170,175,175,112.5,117.5,-120,117.5,205,217.5,-225,217.5,510,66,Sub-Juniors,M,Raw,SBD
5,Eduardo Platas,1998,CAN,65.22,147.5,157.5,165,165,107.5,115,120,120,207.5,217.5,-227.5,217.5,502.5,66,Sub-Juniors,M,Raw,SBD
6,Declan Zimmerman,1998,GBR,64.68,155,162.5,170,170,85,92.5,95,95,197.5,210,222.5,222.5,487.5,66,Sub-Juniors,M,Raw,SBD
7,Fumito Kannan,1998,JPN,65.52,145,155,165,165,80,90,-95,90,165,175,182.5,182.5,437.5,66,Sub-Juniors,M,Raw,SBD
8,Ruben van der Linde,1998,RSA,63.7,145,155,165,165,85,90,-92.5,90,170,180,-185,180,435,66,Sub-Juniors,M,Raw,SBD
1,Andreas Nilsson,1998,SWE,73,200,-210.5,216,216,140,150.5,155,155,220,237.5,247.5,247.5,618.5,74,Sub-Juniors,M,Raw,SBD
2,Noah Ukrainetz,1999,CAN,73,205,215.5,227.5,227.5,117.5,125,130,130,227.5,245,-261.5,245,602.5,74,Sub-Juniors,M,Raw,SBD
3,Bartlomiej Kiersikowski,1998,POL,73.2,175,185,190,190,115,117.5,120,120,220,227.5,-240,227.5,537.5,74,Sub-Juniors,M,Raw,SBD
4,Victor Liu,1998,AUS,73.5,192.5,202.5,-207.5,202.5,102.5,105,107.5,107.5,215,227.5,-237.5,227.5,537.5,74,Sub-Juniors,M,Raw,SBD
5,Daniel van Wezel,1998,NED,73.8,185,192.5,-200,192.5,110,117.5,120,120,200,-212.5,212.5,212.5,525,74,Sub-Juniors,M,Raw,SBD
6,Vincent Capes,1998,NZL,73.8,180,-187.5,187.5,187.5,100,110,115,115,-202.5,202.5,-212.5,202.5,505,74,Sub-Juniors,M,Raw,SBD
7,Michael Berg,1998,USA,73.9,165,177.5,180,180,95,102.5,107.5,107.5,195,207.5,-212.5,207.5,495,74,Sub-Juniors,M,Raw,SBD
8,Shota Murakami,1998,JPN,73,145,155,160,160,115,122.5,-127.5,122.5,-185,195,-205,195,477.5,74,Sub-Juniors,M,Raw,SBD
9,Harrison Pollard,1999,NZL,72.7,-180,180,-190,180,92.5,100,102.5,102.5,190,-195,-195,190,472.5,74,Sub-Juniors,M,Raw,SBD
10,Keisuke Tanaka,1998,JPN,71.9,135,150,157.5,157.5,105,-115,115,115,160,175,187.5,187.5,460,74,Sub-Juniors,M,Raw,SBD
DQ,Ben Sugarman,1999,GBR,72.8,180,190,192.5,192.5,-80,80,90,90,-235,-235,-235,,,74,Sub-Juniors,M,Raw,SBD
1,Ilya Kotenyov,1998,KAZ,82.74,215,220,225,225,145,150,152.5,152.5,240,247.5,260,260,637.5,83,Sub-Juniors,M,Raw,SBD
2,Matthew Cronin,1998,USA,82.92,225,238,245.5,245.5,130,137.5,140,140,-237.5,237.5,250,250,635.5,83,Sub-Juniors,M,Raw,SBD
3,Mauricio Rivera Huaman,1998,PER,81.34,175,192.5,205,205,122.5,127.5,130,130,-262.5,262.5,-270.5,262.5,597.5,83,Sub-Juniors,M,Raw,SBD
4,Ilia Kozlov,1998,RUS,82.48,220,230,-237.5,230,125,130,132.5,132.5,-230,230,-240,230,592.5,83,Sub-Juniors,M,Raw,SBD
5,Karel Rada,2001,CZE,81.86,190,205,210,210,100,107.5,112.5,112.5,195,210,220,220,542.5,83,Sub-Juniors,M,Raw,SBD
6,Spencer Hammond,1998,RSA,80.98,182.5,-195,-195,182.5,115,-122.5,-122.5,115,232.5,240,-247.5,240,537.5,83,Sub-Juniors,M,Raw,SBD
7,Ryu Saito,1998,JPN,81.34,190,-200,-200,190,105,115,-125,115,200,-210,,200,505,83,Sub-Juniors,M,Raw,SBD
8,Shin Tanaka,1998,JPN,75.16,135,150,-160,150,100,-115,-115,100,160,185,-190,185,435,83,Sub-Juniors,M,Raw,SBD
1,Ali Hamdan,1999,NOR,92.6,237.5,245,-263,245,152.5,160,165,165,255,270,-290,270,680,93,Sub-Juniors,M,Raw,SBD
2,Patryk Zaniewski,1998,POL,88.2,220,-227.5,227.5,227.5,145,-152.5,-152.5,145,225,235,-250,235,607.5,93,Sub-Juniors,M,Raw,SBD
3,Guillermo Martínez González,1998,ESP,90.8,185,200,205,205,150,157.5,162.5,162.5,215,225,227.5,227.5,595,93,Sub-Juniors,M,Raw,SBD
4,Eric Kulaviir Andri,1998,EST,91.4,210,220,230,230,-130,137.5,142.5,142.5,215,220,-225,220,592.5,93,Sub-Juniors,M,Raw,SBD
5,Farris Collins,1998,GBR,92.1,190,205,215,215,130,-142.5,-142.5,130,205,220,-227.5,220,565,93,Sub-Juniors,M,Raw,SBD
6,Logan Morrison,1999,USA,92.4,190,200,205,205,110,117.5,120,120,197.5,207.5,212.5,212.5,537.5,93,Sub-Juniors,M,Raw,SBD
7,Harold Chow,1998,AUS,86.2,167.5,175,-180,175,115,125,-137.5,125,200,210,-237.5,210,510,93,Sub-Juniors,M,Raw,SBD
1,Cameron St Amand,1998,CAN,102.7,280,290,300,300,170,177.5,182.5,182.5,270,285,300.5,300.5,783,105,Sub-Juniors,M,Raw,SBD
2,James Crackett,1998,AUS,103.9,212.5,225,235,235,145,155,160,160,230,247.5,-260,247.5,642.5,105,Sub-Juniors,M,Raw,SBD
3,Yuri Karoglanyan,1999,ARM,103.4,-205,205,215,215,160,165,170,170,215,225,230,230,615,105,Sub-Juniors,M,Raw,SBD
4,Zachary Sokol,1998,USA,101.7,200,-215,215,215,145,155,160,160,200,215,227.5,227.5,602.5,105,Sub-Juniors,M,Raw,SBD
1,Nicholas Cataldi,1998,USA,108.26,250,265,270,270,145,152.5,157.5,157.5,250,265,272.5,272.5,700,120,Sub-Juniors,M,Raw,SBD
2,Jack Johnson,1998,GBR,117.68,215,225,232.5,232.5,170,-180,-180,170,242.5,252.5,260,260,662.5,120,Sub-Juniors,M,Raw,SBD
3,Alexandr Zagrevskiy,1998,KAZ,115.38,260,270,-280,270,145,147.5,150,150,-240,240,-250,240,660,120,Sub-Juniors,M,Raw,SBD
1,Joseph Peña,1998,USA,155.14,317.5,342.5,365.5,365.5,147.5,162.5,175,175,232.5,250,-275,250,790.5,120+,Sub-Juniors,M,Raw,SBD
2,Mussa Eldrogy Mussa Abdelwahab,1998,LBA,133.4,160,180,-200,180,80,90,-100,90,190,205,-230,205,475,120+,Sub-Juniors,M,Raw,SBD
1,Dalton LaCoe,1995,USA,52.6,145,155,160,160,107.5,112.5,117.5,117.5,220,230.5,240.5,240.5,518,53,Juniors,M,Raw,SBD
2,Nicholas Viet,1995,AUS,52.6,150,155,160,160,97.5,105,107.5,107.5,180,-185,-192.5,180,447.5,53,Juniors,M,Raw,SBD
3,Yuki Tan,1993,JPN,52.7,120,130,135,135,90,95,-100,95,175,-190,-190,175,405,53,Juniors,M,Raw,SBD
1,Akzhol Alymbek Uulu,1994,KGZ,58.8,165,170,-175,170,125,130,132.5,132.5,205,215,-220,215,517.5,59,Juniors,M,Raw,SBD
2,Jason Luo,1995,CAN,58.8,180,190,-200.5,190,97.5,107.5,112.5,112.5,197.5,212.5,-220,212.5,515,59,Juniors,M,Raw,SBD
3,Taskin Amin,1993,USA,55.8,170,180,185,185,100,105,107.5,107.5,185,192.5,207.5,207.5,500,59,Juniors,M,Raw,SBD
4,Nantei Nikora,1996,KIR,58.6,175,-182.5,-182.5,175,125,127.5,130,130,195,-202.5,-210,195,500,59,Juniors,M,Raw,SBD
5,Michael Barbuto,1993,AUS,58,165,175,-182.5,175,117.5,120,-122.5,120,180,-185,-185,180,475,59,Juniors,M,Raw,SBD
6,Ilkka Ala-Luopa,1993,FIN,58.9,162.5,-165,-165,162.5,105,110,-112.5,110,197.5,-202.5,-210,197.5,470,59,Juniors,M,Raw,SBD
1,Eddie Berglund,1995,SWE,64.8,195,200,207.5,207.5,175,182.5,188.5,188.5,197.5,210,217.5,217.5,613.5,66,Juniors,M,Raw,SBD
2,Clifton Pho,1995,CAN,64.4,190,202.5,205,205,127.5,135,-137.5,135,255,265,-275,265,605,66,Juniors,M,Raw,SBD
3,Willie Lim,1994,USA,65.2,215,-228,-228,215,132.5,137.5,142.5,142.5,217.5,227.5,-232.5,227.5,585,66,Juniors,M,Raw,SBD
4,Leonid Kuznetsov,1993,RUS,64.8,210,-217.5,-217.5,210,125,130,132.5,132.5,-235,235,-242.5,235,577.5,66,Juniors,M,Raw,SBD
5,Hayaru Koshimizu,1993,JPN,65.5,190,200,-210,200,120,125,130,130,230,245,-262.5,245,575,66,Juniors,M,Raw,SBD
6,Frédéric Mannequin,1994,FRA,65.8,200,207.5,210,210,127.5,135,137.5,137.5,217.5,227.5,-240,227.5,575,66,Juniors,M,Raw,SBD
7,Jordan Lam,1993,GBR,65.7,175,185,190,190,120,125,-127.5,125,215,-227.5,-237.5,215,530,66,Juniors,M,Raw,SBD
8,Pawel Mazij,1994,POL,65.9,170,180,-187.5,180,135,-140,-140,135,200,215,-217.5,215,530,66,Juniors,M,Raw,SBD
9,Nathaniel Shaw,1993,GBR,64.9,172.5,182.5,192.5,192.5,100,107.5,-112.5,107.5,217.5,227.5,-235,227.5,527.5,66,Juniors,M,Raw,SBD
10,Marco Rivera,1993,MEX,65.8,152.5,162.5,170,170,100,-105,105,105,190,195,,195,470,66,Juniors,M,Raw,SBD
1,Stephen Lehew,1995,USA,73.66,227.5,240,245,245,160,167.5,172.5,172.5,267.5,-278,278.5,278.5,696,74,Juniors,M,Raw,SBD
2,Vichet Duong,1993,FRA,74,245,255,-260.5,255,140,145,150,150,230,242.5,250,250,655,74,Juniors,M,Raw,SBD
3,Anthony Luca,1994,AUS,72.64,227.5,-240,-245,227.5,125,132.5,-137.5,132.5,262.5,278,-295,278,638,74,Juniors,M,Raw,SBD
4,Daniel Ilczyszyn,1994,POL,73.88,205,210,215,215,142.5,150,-152.5,150,242.5,-257.5,257.5,257.5,622.5,74,Juniors,M,Raw,SBD
5,Matti Christensen,1995,DEN,73.84,205,215,220,220,172.5,177.5,182.5,182.5,207.5,215,-220,215,617.5,74,Juniors,M,Raw,SBD
6,Bastien Poyet,1995,FRA,72.66,165,180,200,200,187.5,-195,195,195,165,205,220,220,615,74,Juniors,M,Raw,SBD
7,Salman Khan,1995,GBR,73.72,205,212.5,215,215,140,-147.5,-147.5,140,250,260,-262.5,260,615,74,Juniors,M,Raw,SBD
8,Justin Smith,1994,CAN,73.12,200,210,217.5,217.5,137.5,145,-147.5,145,-250,250,-262.5,250,612.5,74,Juniors,M,Raw,SBD
9,Josh Reyes,1994,CAN,73.36,205,215,222.5,222.5,122.5,127.5,130,130,245,255,-265,255,607.5,74,Juniors,M,Raw,SBD
10,Urban Mur,1993,SLO,73.7,205,215,-220,215,130,137.5,-140,137.5,220,235,240,240,592.5,74,Juniors,M,Raw,SBD
11,Taimu Ikeguchi,1995,JPN,71.6,195,205,215,215,110,115,-120,115,240,250,260,260,590,74,Juniors,M,Raw,SBD
12,Pedro Lins,1993,BRA,73.44,202.5,215,220,220,120,-125,-125,120,232.5,240,-247.5,240,580,74,Juniors,M,Raw,SBD
13,Christophe Ang,1995,SIN,73.74,190,200,210,210,142.5,-147.5,-147.5,142.5,225,-240,-242.5,225,577.5,74,Juniors,M,Raw,SBD
14,Lorcan Everard,1997,IRL,73.08,205,212.5,215,215,112.5,-120,-120,112.5,215,230,237.5,237.5,565,74,Juniors,M,Raw,SBD
15,Giovanni Arredondo,1994,MEX,73,180,190,-200,190,145,150,-155,150,210,215,-220,215,555,74,Juniors,M,Raw,SBD
16,Jak Tan,1993,NZL,73.04,190,205,-220,205,110,117.5,-120,117.5,200,225,-250,225,547.5,74,Juniors,M,Raw,SBD
17,Hiroshi Utsugi,1996,JPN,73.98,180,195,205,205,120,130,-135,130,180,190,-200,190,525,74,Juniors,M,Raw,SBD
DQ,Paulius Pupinis,1994,LTU,73.18,200,207.5,-212.5,207.5,140,145,147.5,147.5,-240,-240,-240,,,74,Juniors,M,Raw,SBD
1,Brandon Mose,1993,USA,82.62,230,242.5,250,250,165,170,175,175,282.5,306,311,311,736,83,Juniors,M,Raw,SBD
2,Jamie King,1993,NZL,82.48,232.5,245,252.5,252.5,135,142.5,147.5,147.5,280,300,302.5,302.5,702.5,83,Juniors,M,Raw,SBD
3,Trent Blanchard,1993,CAN,82.18,250,262.5,270,270,137.5,145,147.5,147.5,262.5,275,282.5,282.5,700,83,Juniors,M,Raw,SBD
4,Clinton Lee,,SIN,81.4,235,247.5,260,260,145,155,162.5,162.5,245,262.5,270,270,692.5,83,Juniors,M,Raw,SBD
5,Kevin Bui,1995,AUS,81.66,217.5,-227.5,230,230,140,147.5,150,150,285,306.5,-311.5,306.5,686.5,83,Juniors,M,Raw,SBD
6,Daniel Worsley,1993,GBR,81.66,235,245,-252.5,245,155,-160,160,160,-270,270,-290,270,675,83,Juniors,M,Raw,SBD
7,Dean Price,1995,NZL,82.22,232.5,242.5,-250,242.5,165,175,180,180,245,-255,-255,245,667.5,83,Juniors,M,Raw,SBD
8,Jun Furukawa,1996,JPN,81.7,235,245,-250,245,115,125,130,130,260,-280,280,280,655,83,Juniors,M,Raw,SBD
9,Teemu Hällfors,1995,FIN,82.22,-217.5,225,-235,225,167.5,-177.5,-177.5,167.5,235,250,-260,250,642.5,83,Juniors,M,Raw,SBD
10,Christian Horn,1993,GER,82.98,210,220,-230,220,127.5,135,140,140,245,-257.5,257.5,257.5,617.5,83,Juniors,M,Raw,SBD
11,Adam Keane,1993,IRL,82,220,230,235,235,110,117.5,122.5,122.5,-245,-245,245,245,602.5,83,Juniors,M,Raw,SBD
12,Ari Normann Dagfinnur,1993,ISL,82.38,200,-210,-210,200,155,160,-165,160,210,225,232.5,232.5,592.5,83,Juniors,M,Raw,SBD
13,Fredrik Vaage Hovland,1993,NOR,82.96,202.5,212.5,-220,212.5,132.5,140,-142.5,140,240,-260,-260,240,592.5,83,Juniors,M,Raw,SBD
14,Takashi Honjo,1996,JPN,79.1,170,180,190,190,135,142.5,-147.5,142.5,205,215,-220,215,547.5,83,Juniors,M,Raw,SBD
15,Irving Marin,1997,MEX,81.46,185,192.5,-197.5,192.5,130,140,-145,140,192.5,200,205,205,537.5,83,Juniors,M,Raw,SBD
1,Anatolii Novopismennyi,1996,UKR,92,270,290.5,302.5,302.5,170,180,185,185,305,-325,325,325,812.5,93,Juniors,M,Raw,SBD
2,Dan Sullivan,1994,USA,92.4,260,265,270,270,167.5,177.5,182.5,182.5,267.5,285,295,295,747.5,93,Juniors,M,Raw,SBD
3,Sami Lehtonen,1995,FIN,92.7,232.5,240,245,245,160,-165,165,165,280,292.5,305,305,715,93,Juniors,M,Raw,SBD
4,Sion Hughes,1994,GBR,90.8,275,-291,-291,275,150,160,-162.5,160,265,277.5,-282.5,277.5,712.5,93,Juniors,M,Raw,SBD
5,Djallel Feidi,1993,ALG,88,-250,260,270,270,150,-157.5,-157.5,150,-270,270,285,285,705,93,Juniors,M,Raw,SBD
6,Arief Hunter,1993,AUS,92.2,235,242.5,250,250,152.5,160,-165,160,270,-282.5,282.5,282.5,692.5,93,Juniors,M,Raw,SBD
7,Maxim Schutan,1994,GER,92.8,240,255,262.5,262.5,165,172.5,-180,172.5,240,252.5,-257.5,252.5,687.5,93,Juniors,M,Raw,SBD
8,Mateusz Czechyra,1993,POL,92.9,240,-255,-255,240,162.5,170,175,175,270,-282.5,-282.5,270,685,93,Juniors,M,Raw,SBD
9,Vito Minheere,1993,NED,91.7,225,230,-235,230,127.5,135,-140,135,285,-302.5,-302.5,285,650,93,Juniors,M,Raw,SBD
10,Keita Saito,1993,JPN,85.6,175,185,-192.5,185,120,125,127.5,127.5,205,217.5,-225,217.5,530,93,Juniors,M,Raw,SBD
11,Knut Martin Haraldsen,1994,NOR,92.3,200,220,,220,195,-203,-203,195,75,,,75,490,93,Juniors,M,Raw,SBD
1,Zakaria Mouffok,1996,ALG,103.48,280,290,295,295,160,167.5,172.5,172.5,290,310,-315,310,777.5,105,Juniors,M,Raw,SBD
2,Jackson Spencer,1995,CAN,104.22,275,290,300,300,167.5,177.5,182.5,182.5,272.5,292.5,-300,292.5,775,105,Juniors,M,Raw,SBD
3,Francois Maritz,1993,RSA,103.89,265,275,282.5,282.5,170,177.5,182.5,182.5,275,290,292.5,292.5,757.5,105,Juniors,M,Raw,SBD
4,Burkit Muratkhnuly,1995,KAZ,102.32,265,-275,275,275,170,177.5,180,180,300,-310,-310,300,755,105,Juniors,M,Raw,SBD
5,Daniel Saber,1997,SWE,104.56,265,272.5,-277.5,272.5,172.5,177.5,180,180,300,-315,-326,300,752.5,105,Juniors,M,Raw,SBD
6,Alexander Vermetten,1994,NED,104.26,230,240,245,245,160,170,175,175,310,325.5,330.5,330.5,750.5,105,Juniors,M,Raw,SBD
7,Brandon Jeter,1994,USA,103.38,270,285,295,295,167.5,177.5,-180,177.5,260,275,-285,275,747.5,105,Juniors,M,Raw,SBD
8,Riccardo Ciarrocchi,1995,AUS,103.62,260,270,280,280,160,167.5,170,170,255,270,280,280,730,105,Juniors,M,Raw,SBD
9,Austyn Ryan,1993,CAN,104.18,260,267.5,270,270,170,177.5,182.5,182.5,267.5,275,-277.5,275,727.5,105,Juniors,M,Raw,SBD
10,Vladislav Tereshchenko,1996,RUS,104.62,250,260,265,265,175,185,-190,185,255,265,270,270,720,105,Juniors,M,Raw,SBD
11,Slawomir Sidorowicz,1993,POL,104.26,-250,250,260,260,170,175,-180,175,270,280,-285,280,715,105,Juniors,M,Raw,SBD
12,Charlie Wade,1993,GBR,103.28,250,260,267.5,267.5,165,175,180,180,260,-270,-270,260,707.5,105,Juniors,M,Raw,SBD
13,Terence Bosman,1996,RSA,102.52,225,235,-240,235,130,140,-142.5,140,280,290,302.5,302.5,677.5,105,Juniors,M,Raw,SBD
14,Hiroaki Sakamoto,1996,JPN,101.28,210,225,-240,225,140,150,155,155,220,235,250,250,630,105,Juniors,M,Raw,SBD
DQ,Constantino Sulopulos Kazakos,1993,PER,102.24,230,240,245,245,165,-170,170,170,-280,-280,-280,,,105,Juniors,M,Raw,SBD
1,Maksym Potomkin,1993,UKR,116.9,295,307.5,-315,307.5,227.5,235,240,240,305,320,330,330,877.5,120,Juniors,M,Raw,SBD
2,Matt Sohmer,1993,USA,119.5,340,355,365.5,365.5,127.5,137.5,142.5,142.5,325,337.5,350,350,858,120,Juniors,M,Raw,SBD
3,Cameron McKenzie,1993,AUS,119.8,300,315,320,320,-190,190,-195,190,315,345,-367.5,345,855,120,Juniors,M,Raw,SBD
4,Piotr Sadowski,1993,POL,119.9,315,-332.5,-332.5,315,205,215,-220,215,300,310,317.5,317.5,847.5,120,Juniors,M,Raw,SBD
5,Mark Macqueen,1994,GBR,119.2,287.5,305,317.5,317.5,165,-175,180,180,297.5,315,322.5,322.5,820,120,Juniors,M,Raw,SBD
6,Bjarte Vik Larsen,1994,NOR,119.3,260,277.5,-287.5,277.5,197.5,205,-210,205,270,300,-305,300,782.5,120,Juniors,M,Raw,SBD
7,Jake Ripco,1993,CAN,119.1,265,277.5,-280,277.5,165,172.5,-177.5,172.5,277.5,-292.5,292.5,292.5,742.5,120,Juniors,M,Raw,SBD
8,Seiken Sano,1995,JPN,110.7,250,265,272.5,272.5,-140,140,150,150,280,300,-302.5,300,722.5,120,Juniors,M,Raw,SBD
1,Andy Askow,1994,USA,169.9,332.5,350,366,366,210,225,-235,225,-285,285,315,315,906,120+,Juniors,M,Raw,SBD
2,Mehmet Kaya,1996,SWE,122.6,300,-310,-315,300,172.5,180,182.5,182.5,300,307.5,-312.5,307.5,790,120+,Juniors,M,Raw,SBD
3,Kevin Jaeger,1995,GER,125.9,260,275,-285,275,187.5,-200,-200,187.5,242.5,262.5,-285,262.5,725,120+,Juniors,M,Raw,SBD
4,Evan Shaskin,1993,CAN,131.8,212.5,227.5,-232.5,227.5,150,160,-170,160,250,265,270,270,657.5,120+,Juniors,M,Raw,SBD
5,Anthony Krznar,1993,AUS,131.6,300,312.5,-320,312.5,-125,130,150,150,65,,,65,527.5,120+,Juniors,M,Raw,SBD
DQ,Jordan McLaughlin,1993,GBR,135.1,-320,-320,-320,,190,205,-212.5,205,275,285,-290,285,,120+,Juniors,M,Raw,SBD
1,Ramadan Shebek Omar Mohamed,1975,LBA,58.7,140,150,-160,150,80,90,97.5,97.5,190,210,215,215,462.5,59,Masters 1,M,Raw,SBD
2,Kiyoshi Kawamura,1968,JPN,58.7,145,152.5,-155,152.5,107.5,-110,-110,107.5,190,-200,-200,190,450,59,Masters 1,M,Raw,SBD
3,Zack Toh,,SIN,58.2,-140,150,155,155,100,-105,105,105,175,182.5,-190,182.5,442.5,59,Masters 1,M,Raw,SBD
4,Kunihiko Kitazawa,1974,JPN,58.1,140,155,-160,155,95,100,102.5,102.5,170,-180,-180,170,427.5,59,Masters 1,M,Raw,SBD
5,Brad Peters,1976,AUS,58.4,147.5,157.5,-160,157.5,80,87.5,-92.5,87.5,160,175,182.5,182.5,427.5,59,Masters 1,M,Raw,SBD
6,Ron Brinker,1975,USA,57.5,140,145,147.5,147.5,75,82.5,87.5,87.5,155,-165,-165,155,390,59,Masters 1,M,Raw,SBD
1,Lewis Noppers,1970,CAN,65.6,-192.5,192.5,200,200,125,130,135,135,250,270,-280,270,605,66,Masters 1,M,Raw,SBD
2,Abdelkader Aissa,1969,ALG,65.8,170,180,-187.5,180,112.5,117.5,,117.5,235,252.5,,252.5,550,66,Masters 1,M,Raw,SBD
3,Roger Hamilton-Smith,1975,GBR,63.9,150,160,-165,160,100,107.5,110,110,190,202.5,207.5,207.5,477.5,66,Masters 1,M,Raw,SBD
4,Arnaud Fruit,1976,FRA,64.7,145,155,-160,155,110,117.5,-120,117.5,180,190,-202.5,190,462.5,66,Masters 1,M,Raw,SBD
5,Tatsuhiko Ueno,1976,JPN,63.7,150,160,165,165,95,100,102.5,102.5,170,180,-190,180,447.5,66,Masters 1,M,Raw,SBD
6,Eikichi Tomita,1971,JPN,60.7,130,137.5,-145,137.5,85,-90,-90,85,170,180,-185,180,402.5,66,Masters 1,M,Raw,SBD
1,Tom Kean,1972,CAN,73.8,210,220,-225,220,145,152.5,-155,152.5,237.5,247.5,-252.5,247.5,620,74,Masters 1,M,Raw,SBD
2,Sean Muir,1970,AUS,73.3,197.5,-205,205,205,127.5,132.5,135,135,237.5,250,260,260,600,74,Masters 1,M,Raw,SBD
3,Jason Jackson,1974,USA,73.6,192.5,200,-207.5,200,117.5,122.5,127.5,127.5,237.5,245,262.5,262.5,590,74,Masters 1,M,Raw,SBD
4,Sami Siltala,1972,FIN,73.6,170,177.5,185,185,140,145,147.5,147.5,245,-255,-257.5,245,577.5,74,Masters 1,M,Raw,SBD
5,Enkhbat Sanduijav,1974,MGL,73.6,190,200,-207.5,200,120,127.5,-130,127.5,230,237.5,-252.5,237.5,565,74,Masters 1,M,Raw,SBD
6,Marcel Rösler,1976,CZE,73.9,-170,-170,170,170,120,127.5,-132.5,127.5,200,220,-230,220,517.5,74,Masters 1,M,Raw,SBD
7,Pierre Nguyen,1976,FRA,72.5,165,175,180,180,125,130,-135,130,165,180,-185,180,490,74,Masters 1,M,Raw,SBD
8,Keiji Fujikawa,1971,JPN,72.6,-170,170,-180,170,115,-120,-120,115,170,185,-205,185,470,74,Masters 1,M,Raw,SBD
DQ,Ali Aliskandarani Mohammed Mohammed,1972,LBA,72.8,-210,-220,-225,,130,135,-137.5,135,220,250,262.5,262.5,,74,Masters 1,M,Raw,SBD
1,Donald Bigham,1972,USA,81.9,240,260,265,265,122.5,142.5,147.5,147.5,257.5,272.5,-277.5,272.5,685,83,Masters 1,M,Raw,SBD
2,Marcos Sanchéz,1974,ECU,82.7,225,235,-240,235,140,-147.5,-147.5,140,230,240,247.5,247.5,622.5,83,Masters 1,M,Raw,SBD
3,Remi Carvalho,1969,BRA,83,185,192.5,-205,192.5,132.5,137.5,142.5,142.5,230,-242.5,-250,230,565,83,Masters 1,M,Raw,SBD
4,Robert King,1974,CAN,82,150,175,192.5,192.5,125,132.5,-137.5,132.5,75,,,75,400,83,Masters 1,M,Raw,SBD
1,Gabriel García,1975,MEX,91.8,255,265,275,275,165,172.5,-177.5,172.5,262.5,277.5,-287.5,277.5,725,93,Masters 1,M,Raw,SBD
2,Dale McLaren,1976,USA,92.7,220,232.5,240,240,152.5,160,-165,160,265,277.5,280,280,680,93,Masters 1,M,Raw,SBD
3,Jeff Butt,1970,CAN,92.8,232.5,245,252.5,252.5,157.5,162.5,-167.5,162.5,245,255,262.5,262.5,677.5,93,Masters 1,M,Raw,SBD
4,Iain Kendrick,1976,GBR,92.4,240,250,255,255,140,147.5,-152.5,147.5,260,267.5,-275,267.5,670,93,Masters 1,M,Raw,SBD
5,Matthew MacKay,1972,CAN,92.4,200,210,-217.5,210,137.5,145,-147.5,145,245,257.5,-262.5,257.5,612.5,93,Masters 1,M,Raw,SBD
6,Nicolás Urioste,1968,URU,92,-210,210,-222.5,210,145,152.5,-157.5,152.5,220,230,-235,230,592.5,93,Masters 1,M,Raw,SBD
7,Sukh-Ochir Yura,1970,MGL,92.6,200,217.5,232.5,232.5,100,115,-122.5,115,230,242.5,-270,242.5,590,93,Masters 1,M,Raw,SBD
8,Mitsuhisa Ogawa,1971,JPN,91.8,185,195,-205,195,130,140,-145,140,195,205,-210,205,540,93,Masters 1,M,Raw,SBD
1,Sean Manders,1976,RSA,103.6,290,-300.5,-300.5,290,170,175,177.5,177.5,295,305,307.5,307.5,775,105,Masters 1,M,Raw,SBD
2,Rene Brunner,1976,AUT,103.6,280,292.5,297.5,297.5,185,195,-202.5,195,260,272.5,280,280,772.5,105,Masters 1,M,Raw,SBD
3,Adrian Brown,1975,TRI,104.1,265,275,,275,-165,170,175,175,300,305,-310,305,755,105,Masters 1,M,Raw,SBD
4,Gunnar Johansen Bjorn,1971,NOR,103.2,240,257.5,,257.5,190,200,202.5,202.5,260,-277.5,277.5,277.5,737.5,105,Masters 1,M,Raw,SBD
5,Janne Salmela,1971,SWE,102.8,255,265,-270,265,160,-165,-165,160,310,-325,-330,310,735,105,Masters 1,M,Raw,SBD
6,Jarno Ruohonen,1975,FIN,104.9,250,262.5,272.5,272.5,180,190,195,195,260,-275,-275,260,727.5,105,Masters 1,M,Raw,SBD
7,Karel Rada,1973,CZE,104.4,255,265,-275,265,160,165,-170,165,255,-275,275,275,705,105,Masters 1,M,Raw,SBD
8,Bob Eucker,1973,USA,104.1,242.5,-255,-255,242.5,137.5,147.5,-150,147.5,290,295,-305,295,685,105,Masters 1,M,Raw,SBD
9,Brian George,1971,CAN,103.9,245,255,257.5,257.5,-142.5,142.5,-145,142.5,260,275,-280,275,675,105,Masters 1,M,Raw,SBD
10,Dave Keong,1973,AUS,104.3,200,215,222.5,222.5,147.5,152.5,-155,152.5,235,250,255,255,630,105,Masters 1,M,Raw,SBD
11,Ariunjargal Luvsanchultem,1971,MGL,101.9,200,220,,220,120,-135,,120,250,265,-305,265,605,105,Masters 1,M,Raw,SBD
1,Ryan Stills,1976,USA,115.96,275,290,300,300,185,197.5,-202.5,197.5,300,315,325,325,822.5,120,Masters 1,M,Raw,SBD
2,Colin Wright,1967,GBR,117.74,280,295,302.5,302.5,165,172.5,177.5,177.5,300,315,322.5,322.5,802.5,120,Masters 1,M,Raw,SBD
3,Yuriy Zakharov,1972,KAZ,119.18,285,292.5,300,300,180,185,-187.5,185,270,280,-290,280,765,120,Masters 1,M,Raw,SBD
4,Collin Pullar,1972,CAN,116.94,255,270,277.5,277.5,182.5,192.5,200,200,240,255,265,265,742.5,120,Masters 1,M,Raw,SBD
5,Cédric Broutin,1975,FRA,112.82,255,270,-285,270,162.5,167.5,-172.5,167.5,270,290,-295,290,727.5,120,Masters 1,M,Raw,SBD
6,Petr Lahoda,1970,CZE,118.36,260,275,282.5,282.5,180,190,192.5,192.5,240,-260,-265,240,715,120,Masters 1,M,Raw,SBD
7,Mohammed Makhlouf Tariq Abd Alsameea,1975,LBA,116.06,210,230,245,245,130,140,145,145,220,240,250,250,640,120,Masters 1,M,Raw,SBD
DQ,Antti Vihola,1975,FIN,117.56,250,265,275,275,-180,-190,-190,,280,295,-315,295,,120,Masters 1,M,Raw,SBD
1,Jaroslav Šoukal,1972,CZE,169.9,280,300,310,310,212.5,225,-232.5,225,260,282.5,292.5,292.5,827.5,120+,Masters 1,M,Raw,SBD
2,Hassan Koaik,1972,LIB,127.1,275,290,300,300,195,-207.5,-207.5,195,280,300,307.5,307.5,802.5,120+,Masters 1,M,Raw,SBD
3,Jamey Grotjahn,1974,USA,160.7,-247.5,247.5,260,260,205,215,222.5,222.5,287.5,307.5,-322.5,307.5,790,120+,Masters 1,M,Raw,SBD
4,Christopher Baker,1974,GBR,141.48,240,255,260,260,212.5,225,-232.5,225,260,272.5,280,280,765,120+,Masters 1,M,Raw,SBD
5,Jan Filo,1971,CZE,143.28,277.5,-287.5,287.5,287.5,185,190,,190,240,255,-270,255,732.5,120+,Masters 1,M,Raw,SBD
6,Ricky Mullan,1974,GBR,124.46,240,260,-272.5,260,140,150,152.5,152.5,280,300,310,310,722.5,120+,Masters 1,M,Raw,SBD
7,Jargalsaikhan Lkhanaa,1968,MGL,122.9,250,-265,265,265,150,162.5,170,170,-245,250,-270,250,685,120+,Masters 1,M,Raw,SBD
8,Robert Snow,1972,CAN,152.1,225,235,-240,235,160,167.5,172.5,172.5,255,265,-272.5,265,672.5,120+,Masters 1,M,Raw,SBD
9,Fanie du Preez,1973,RSA,129.64,175,195,-207.5,195,135,145,-150,145,225,-245,-245,225,565,120+,Masters 1,M,Raw,SBD
1,Eric Kupperstein,1966,USA,58.66,170,182.5,190,190,77.5,85,-90,85,220,-235.5,235.5,235.5,510.5,59,Masters 2,M,Raw,SBD
2,Tomoyoshi Shiiki,1964,JPN,58.84,127.5,-132.5,132.5,132.5,100,-105,-105,100,147.5,-157.5,-157.5,147.5,380,59,Masters 2,M,Raw,SBD
1,Jeffrey Phillips,1965,USA,64.48,170,177.5,185,185,110,115,117.5,117.5,215,217.5,227.5,227.5,530,66,Masters 2,M,Raw,SBD
2,Fabrice Pailler,1963,FRA,64.88,-147.5,147.5,152.5,152.5,105,110,-112.5,110,192.5,200,-202.5,200,462.5,66,Masters 2,M,Raw,SBD
3,Henry Chay,1961,GBR,61.9,135,145,-147.5,145,80,82.5,-85,82.5,180,190,-197.5,190,417.5,66,Masters 2,M,Raw,SBD
4,Ko Suzuki,1959,JPN,63.76,127.5,-145,145,145,-115,115,120,120,140,150,-160,150,415,66,Masters 2,M,Raw,SBD
DQ,Patrick Beaupuits,1958,FRA,65.26,-145,-145,-147.5,,80,82.5,-85,82.5,165,-170,,165,,66,Masters 2,M,Raw,SBD
1,Jacob Carrasco-Gonzales,1966,PER,70.96,185,195,205,205,115,120,122.5,122.5,215,225,230,230,557.5,74,Masters 2,M,Raw,SBD
2,Irving Harris,1964,NRU,73.84,206,-212,-212,206,110,120,-122.5,120,210,217.5,-225,217.5,543.5,74,Masters 2,M,Raw,SBD
3,Gary Kaiser,1960,USA,72.84,175,-182.5,182.5,182.5,127.5,-135,-135,127.5,220,227.5,-235,227.5,537.5,74,Masters 2,M,Raw,SBD
4,Eric Wettel,1962,FRA,73.6,155,165,-170,165,125,132.5,-135,132.5,215,225,-232.5,225,522.5,74,Masters 2,M,Raw,SBD
5,Vincent Patty,1964,AUS,72.04,-150,-150,150,150,145.5,153,-155,153,185,195,-202.5,195,498,74,Masters 2,M,Raw,SBD
6,Brett Zoerb,1958,CAN,73.3,177.5,185,-187.5,185,97.5,102.5,-107.5,102.5,195,205,-215,205,492.5,74,Masters 2,M,Raw,SBD
7,Jorge Sánchez Pacheco,1964,MEX,71.14,120,130,-140,130,90,100,-110,100,160,-180,-180,160,390,74,Masters 2,M,Raw,SBD
1,Ronald Garofalo,1961,USA,81.64,215,232.5,237.5,237.5,142.5,147.5,-152.5,147.5,255,272.5,290,290,675,83,Masters 2,M,Raw,SBD
2,Jeff Becker,1963,CAN,82.58,215,225,-227.5,225,140,147.5,-152.5,147.5,252.5,260,262.5,262.5,635,83,Masters 2,M,Raw,SBD
3,Sandro D'Angelo,1964,CAN,82.2,200,-207.5,-210,200,122.5,127.5,-130,127.5,232.5,242.5,247.5,247.5,575,83,Masters 2,M,Raw,SBD
4,Grant Sugarman,1962,GBR,80.98,175,-182.5,-182.5,175,115,120,-125,120,230,-240,-240,230,525,83,Masters 2,M,Raw,SBD
5,Erik Rasmussen,1962,DEN,82.3,180,187.5,192.5,192.5,125,130,132.5,132.5,180,190,-202.5,190,515,83,Masters 2,M,Raw,SBD
6,Stephen King,1962,NZL,81.36,180,200,-207.5,200,90,100,105,105,190,205,-210,205,510,83,Masters 2,M,Raw,SBD
7,Félix Martial,1963,FRA,82.28,170,180,190,190,85,92.5,-100,92.5,200,210,-220,210,492.5,83,Masters 2,M,Raw,SBD
1,David Ricks,1959,USA,91.6,270,300,310,310,177.5,190,200,200,262.5,-280,280,280,790,93,Masters 2,M,Raw,SBD
2,Robert Rodney,1964,GBR,91.7,210,230,237.5,237.5,145,150,-152.5,150,250,270,280,280,667.5,93,Masters 2,M,Raw,SBD
3,Eric Dumas,1964,AUS,92,240,247.5,255,255,140,145,-147.5,145,240,252.5,265,265,665,93,Masters 2,M,Raw,SBD
4,Gemel Bougamdouz,1963,FRA,92.3,215,220,-225,220,165,-167.5,,165,245,-255,,245,630,93,Masters 2,M,Raw,SBD
5,Yasushi Hasegawa,1966,JPN,90.9,210,220,232.5,232.5,140,145,-150,145,200,220,-235,220,597.5,93,Masters 2,M,Raw,SBD
1,Leon Brown,1966,CAN,101.8,270,275.5,285,285,215,223,-227,223,265,272.5,-277.5,272.5,780.5,105,Masters 2,M,Raw,SBD
2,Greg Titus,1966,USA,100.3,195,205,210,210,170,175,180,180,235,247.5,252.5,252.5,642.5,105,Masters 2,M,Raw,SBD
3,Farag Elbaraasi Farag A,1966,LBA,102.7,220,240,250,250,140,152.5,-160,152.5,220,227.5,-235,227.5,630,105,Masters 2,M,Raw,SBD
4,Chris Cooper,1962,GBR,102.5,192.5,202.5,210,210,155,160,-165,160,220,232.5,240,240,610,105,Masters 2,M,Raw,SBD
5,Gord Sjodin,1966,CAN,104.1,-190,190,200,200,150,157.5,165,165,210,230,245,245,610,105,Masters 2,M,Raw,SBD
6,Harri Hagfors,1961,FIN,98.1,200,212.5,217.5,217.5,132.5,140,-145,140,250,-265,-272.5,250,607.5,105,Masters 2,M,Raw,SBD
1,Anthony Harris,1964,USA,115.4,300,325,337.5,337.5,165,-180,192.5,192.5,300,322.5,335,335,865,120,Masters 2,M,Raw,SBD
2,Ron Strong,1958,CAN,118.8,225,235,-242.5,235,155,165,-167.5,165,275,290,292.5,292.5,692.5,120,Masters 2,M,Raw,SBD
3,Kelvin Aitken,1957,AUS,117.4,190,210,217.5,217.5,145,152.5,157.5,157.5,285,305,-317.5,305,680,120,Masters 2,M,Raw,SBD
4,Mika Kurjonen,1965,FIN,116.4,230,240,245,245,155,160,167.5,167.5,250,-265,-267.5,250,662.5,120,Masters 2,M,Raw,SBD
5,Jean-Yves Minelle,1966,FRA,118.2,170,-180,180,180,195,-202.5,-202.5,195,180,210,230,230,605,120,Masters 2,M,Raw,SBD
6,Timo Rantala,1963,FIN,118.6,155,165,175,175,140,150,-155,150,190,205,-220,205,530,120,Masters 2,M,Raw,SBD
1,Andrew Rodney,1965,GBR,121.2,-230,260,270,270,165,175,177.5,177.5,260,275,,275,722.5,120+,Masters 2,M,Raw,SBD
2,Niels Stærkjær,1966,DEN,161.2,230,250,260,260,197.5,-207.5,207.5,207.5,210,222.5,232.5,232.5,700,120+,Masters 2,M,Raw,SBD
3,Steve Lousich,1965,NZL,130.4,260,270,-280,270,177.5,187.5,197.5,197.5,220,-230,-232.5,220,687.5,120+,Masters 2,M,Raw,SBD
4,Robert Sadler,1962,GBR,128.3,235,242.5,-247.5,242.5,135,140,,140,242.5,-252.5,,242.5,625,120+,Masters 2,M,Raw,SBD
1,Phil Drenik Jr,1956,USA,58.12,117.5,127.5,135,135,65,72.5,75,75,162.5,172.5,180,180,390,59,Masters 3,M,Raw,SBD
1,Mitsugu Hachisu,1950,JPN,65.4,165,175,-185.5,175,115,122.5,-126.5,122.5,180,197.5,-225.5,197.5,495,66,Masters 3,M,Raw,SBD
2,Jean Bonnefoy,1953,FRA,63.92,105,115,120,120,100,110,-112.5,110,155,165,175,175,405,66,Masters 3,M,Raw,SBD
3,Georges Auberval,1956,FRA,64.56,140,-150,150,150,57.5,62.5,-65,62.5,160,-170,172.5,172.5,385,66,Masters 3,M,Raw,SBD
1,Christian Voisin,1956,FRA,73,175,182.5,187.5,187.5,125,127.5,130,130,205,210.5,220.5,220.5,538,74,Masters 3,M,Raw,SBD
2,Joseph Marksteiner,1953,USA,69.92,152.5,162.5,170,170,82.5,87.5,90,90,165,175,180,180,440,74,Masters 3,M,Raw,SBD
3,Kevin Strachan,1954,NZL,73.08,130,137.5,145,145,75,80,85,85,160,170,180,180,410,74,Masters 3,M,Raw,SBD
1,Jerry Marentette,1956,CAN,82.2,182.5,190.5,195.5,195.5,117.5,122.5,125,125,227.5,232.5,237.5,237.5,558,83,Masters 3,M,Raw,SBD
2,Ron Delaney,1951,CAN,82.46,-165,172.5,-180,172.5,110,117.5,-120,117.5,242.5,-252.5,,242.5,532.5,83,Masters 3,M,Raw,SBD
3,Régis Gautier,1956,FRA,81.2,-130,130,,130,110,-117.5,-117.5,110,200,,,200,440,83,Masters 3,M,Raw,SBD
1,John Fraser,1956,CAN,90.62,175,-190,190,190,137.5,142.5,145,145,220,235,-255.5,235,570,93,Masters 3,M,Raw,SBD
2,Christian Delpieu,1951,FRA,91.18,195,205,215,215,110,117.5,-120,117.5,225,235,-245,235,567.5,93,Masters 3,M,Raw,SBD
DQ,Phillip Rosentern,1954,USA,91.28,175,182.5,-185,182.5,-102.5,-107.5,-107.5,,240,-242.5,-247.5,240,,93,Masters 3,M,Raw,SBD
1,Christian Buchs,1947,FRA,94.5,182.5,192.5,197.5,197.5,100,107.5,112.5,112.5,210,225,232.5,232.5,542.5,105,Masters 3,M,Raw,SBD
2,Bruce Barry,1952,USA,103.84,200,-215,215,215,100,110,112.5,112.5,207.5,215,-227.5,215,542.5,105,Masters 3,M,Raw,SBD
3,Paul Francis,1955,CAN,103.2,165,175,185,185,130,137.5,142.5,142.5,182.5,192.5,205,205,532.5,105,Masters 3,M,Raw,SBD
4,Rüdiger Hopp,1955,SWE,101.9,175,185,195,195,100,107.5,110,110,212.5,225,-240,225,530,105,Masters 3,M,Raw,SBD
1,Frank Panaro,1951,USA,110.34,210,215,220,220,112.5,122.5,130,130,250,267.5,277.5,277.5,627.5,120,Masters 3,M,Raw,SBD
2,Björn Ahlberg,1956,SWE,118.04,190,205,215,215,170,180,-185,180,200,215,225,225,620,120,Masters 3,M,Raw,SBD
DQ,François Lamoureux,1955,FRA,110.18,-170,-170,-170,,120,-125,-125,120,220,230,235,235,,120,Masters 3,M,Raw,SBD
1,Curtis Wainwright,1954,USA,122.56,-202.5,202.5,217.5,217.5,137.5,145,147.5,147.5,217.5,235,247.5,247.5,612.5,120+,Masters 3,M,Raw,SBD
1,Akiyoshi Kawanaka,1942,JPN,58.34,80,90,-100,90,75,80,-82.5,80,95,110,-117.5,110,280,59,Masters 4,M,Raw,SBD
1,Iain Burgess,1944,USA,63.4,95,100,105,105,60,62.5,,62.5,125,132.5,135,135,302.5,66,Masters 4,M,Raw,SBD
2,Thomas Cragg,1941,CAN,65.52,70,77.5,-80,77.5,45,-52.5,-52.5,45,125,130,135,135,257.5,66,Masters 4,M,Raw,SBD
1,Katsuji Okiura,1945,JPN,70.7,-160,160,182.5,182.5,80,87.5,90,90,190,-208.5,-208.5,190,462.5,74,Masters 4,M,Raw,SBD
2,Guylhem Feraud,1945,FRA,71.58,115,125,127.5,127.5,100,-105,105,105,160,167.5,175,175,407.5,74,Masters 4,M,Raw,SBD
3,Frank Stamboolian Jr,1938,USA,73.42,-120,120,-135,120,90,95,-97.5,95,142.5,155,-170,155,370,74,Masters 4,M,Raw,SBD
1,Ernie Parkes,1942,GBR,81.18,-155,155,-165,155,85,90,-92.5,90,210,222.5,-227.5,222.5,467.5,83,Masters 4,M,Raw,SBD
2,Kuniyoshi Sato,1943,JPN,77.5,140,160,170,170,100,110,-115,110,160,180,-200,180,460,83,Masters 4,M,Raw,SBD
1,Kazimierz Forys,1945,GER,91.06,-174,174,-190.5,174,126,132,136,136,197.5,211,232.5,232.5,542.5,93,Masters 4,M,Raw,SBD
2,Kari Mattila,1945,SWE,88.66,140,150,,150,80,85,90,90,180,190,-200,190,430,93,Masters 4,M,Raw,SBD
3,Thomas Kalen,1943,USA,86.22,142.5,150,157.5,157.5,85,92.5,97.5,97.5,152.5,162.5,170,170,425,93,Masters 4,M,Raw,SBD
1,William Helmich,1942,USA,104,105,112.5,125,125,95,102.5,107.5,107.5,175,187.5,195,195,427.5,105,Masters 4,M,Raw,SBD
2,Anthony Contino,1946,USA,101.98,130,135,140,140,-105,105,-112.5,105,177.5,-187.5,-190,177.5,422.5,105,Masters 4,M,Raw,SBD
3,Tapio Kähäri,1946,FIN,94.34,-145,145,-157.5,145,92.5,-97.5,-97.5,92.5,145,155,162.5,162.5,400,105,Masters 4,M,Raw,SBD
1,Truls Kristensen,1939,NOR,110.52,177.5,187.5,-192.5,187.5,120,125,-127.5,125,180,187.5,192.5,192.5,505,120,Masters 4,M,Raw,SBD
2,Crayton Taylor,1946,USA,110.4,155,-165,-165,155,100,105,-110,105,215,222.5,230,230,490,120,Masters 4,M,Raw,SBD
1,Mikko Seikkula,1946,FIN,127.92,120,130,150,150,180,196.5,-200,196.5,170,185,195,195,541.5,120+,Masters 4,M,Raw,SBD
2,Harold Mulholland,1944,CAN,122.68,135,145,152.5,152.5,120,125,130,130,200,215,220,220,502.5,120+,Masters 4,M,Raw,SBD
1,María Luisa Vásquez,1983,PUR,46.16,120,127.5,132.5,132.5,72.5,77.5,-80,77.5,145,150,152.5,152.5,362.5,47,Open,F,Raw,SBD
2,Heather Connor,1991,USA,46.56,110,117.5,122.5,122.5,62.5,-67.5,-67.5,62.5,155,165,-178,165,350,47,Open,F,Raw,SBD
3,Hanna Rantala,1982,FIN,46.95,102.5,107.5,110,110,87.5,93,-95.5,93,130,137.5,140,140,343,47,Open,F,Raw,SBD
4,Leslie Evangelista,1981,PHI,47,107.5,115,117.5,117.5,62.5,67.5,-70,67.5,145,147.5,155,155,340,47,Open,F,Raw,SBD
5,Rie Kani,1979,JPN,46.6,107.5,112.5,115,115,-72.5,72.5,-75,72.5,137.5,145,-157.5,145,332.5,47,Open,F,Raw,SBD
6,Lisa Rothman,1975,USA,46.66,110,115,120,120,62.5,65,-67.5,65,135,142.5,-150,142.5,327.5,47,Open,F,Raw,SBD
7,Rhonda Wong,1992,CAN,46.84,107.5,115,120,120,60,65,70,70,122.5,132.5,-140,132.5,322.5,47,Open,F,Raw,SBD
8,Stéphanie Legard,1981,FRA,46.72,112.5,-117.5,120,120,60,65,-70,65,120,130,-135,130,315,47,Open,F,Raw,SBD
9,Rebecca Heath,1977,GBR,45.84,97.5,102.5,-105,102.5,62.5,-67.5,-67.5,62.5,110,117.5,125,125,290,47,Open,F,Raw,SBD
10,Priscilla Smoot,1979,AUS,45.26,-92.5,95,-100,95,55,60,62.5,62.5,107.5,112.5,117.5,117.5,275,47,Open,F,Raw,SBD
11,Mariska Casey,1978,RSA,46.24,85,-90,-95,85,47.5,52.5,-55,52.5,120,132.5,-137.5,132.5,270,47,Open,F,Raw,SBD
1,Sofia Loft,1990,SWE,51.74,142.5,147.5,150,150,87.5,-92.5,92.5,92.5,162.5,170,175,175,417.5,52,Open,F,Raw,SBD
2,Olga Golubeva,1970,RUS,51.5,130,135,140,140,92.5,97.5,100,100,160,167.5,172.5,172.5,412.5,52,Open,F,Raw,SBD
3,Elizabeth Craven,1975,AUS,51.68,137.5,-147.5,147.5,147.5,77.5,80,82.5,82.5,165,175,-185,175,405,52,Open,F,Raw,SBD
4,Joy Nnamani,1992,GBR,50.52,130,137.5,-140,137.5,67.5,72.5,75,75,175,185,-192.5,185,397.5,52,Open,F,Raw,SBD
5,Marisa Inda,1976,USA,51,-125,125,132.5,132.5,80,85,90,90,162.5,172.5,-182.5,172.5,395,52,Open,F,Raw,SBD
6,Hazel Hu,1984,IRL,51.22,120,125,-130,125,67.5,70,,70,142.5,147.5,152.5,152.5,347.5,52,Open,F,Raw,SBD
7,Antoinette Kriel,1971,RSA,51.92,100,110,120,120,82.5,-87.5,-87.5,82.5,130,142.5,-155,142.5,345,52,Open,F,Raw,SBD
8,Emma Goodwin,1987,GBR,51.58,102.5,110,112.5,112.5,65,-70,-70,65,147.5,157.5,162.5,162.5,340,52,Open,F,Raw,SBD
9,Suzan Premji,1984,NZL,51.9,87.5,-95,97.5,97.5,55,60,62.5,62.5,125,132.5,-140,132.5,292.5,52,Open,F,Raw,SBD
10,Aline Falcon,1990,MEX,49.7,90,-100,-100,90,50,-55,-55,50,145,-155,-155,145,285,52,Open,F,Raw,SBD
DQ,Joanna Rieber,1976,CAN,51.66,127.5,132.5,-135,132.5,-85,-85,-85,,-147.5,-147.5,-147.5,,,52,Open,F,Raw,SBD
1,Inna Filimonova,1976,RUS,56.3,165,170,174,174,77.5,82.5,85,85,180,185,-187.5,185,444,57,Open,F,Raw,SBD
2,Hui-Chun Wu,1986,TPE,57,-130,130,147.5,147.5,95,102.5,105,105,170,182.5,187.5,187.5,440,57,Open,F,Raw,SBD
3,Jessica Benedetto,1981,CAN,56.5,142.5,147.5,-152.5,147.5,97.5,102.5,-107.5,102.5,165,172.5,177.5,177.5,427.5,57,Open,F,Raw,SBD
4,Kenia Monserrate,1991,ECU,56.2,145,155,-162.5,155,80,85,-90,85,160,170,180,180,420,57,Open,F,Raw,SBD
5,Vilma Ochoa Vargas,1980,ECU,55.3,150,-157.5,-157.5,150,80,85,-87.5,85,155,165,175,175,410,57,Open,F,Raw,SBD
6,Veronika Alvarado Blanco,1991,PER,56.3,145,-150,152.5,152.5,65,70,-72.5,70,165,170,177.5,177.5,400,57,Open,F,Raw,SBD
7,Yuliya Vavilova,1979,RUS,57,130,140,-142.5,140,70,77.5,82.5,82.5,150,155,160,160,382.5,57,Open,F,Raw,SBD
8,Vanessa Alvares,1978,BRA,56.5,135,142.5,-150,142.5,70,72.5,75,75,152.5,160,-165,160,377.5,57,Open,F,Raw,SBD
9,Natalie Salm,1991,AUS,55.7,125,132.5,137.5,137.5,85,-90,-90,85,132.5,142.5,-150,142.5,365,57,Open,F,Raw,SBD
10,A-Yun Lin,1945,TPE,54.6,70,80,-90,80,35,45,52.5,52.5,100,120,-125,120,252.5,57,Open,F,Raw,SBD
DQ,Maria Htee,1988,CAN,57,170,173.5,-175.5,173.5,92.5,97.5,100,100,-165,-165,-165,,,57,Open,F,Raw,SBD
1,Jennifer Thompson,1973,USA,60.58,130,140,145,145,127.5,137.5,141.5,141.5,160,190,-200,190,476.5,63,Open,F,Raw,SBD
2,Ivana Horná,1990,SVK,62.08,155,160,-162.5,160,85,90,-92.5,90,195,202.5,205,205,455,63,Open,F,Raw,SBD
3,Jenny Adolfsson,1982,SWE,62.54,147.5,155,157.5,157.5,105,107.5,110,110,165,175,182.5,182.5,450,63,Open,F,Raw,SBD
4,Rosa Castro,1979,ECU,62.24,165,172.5,178,178,92.5,97.5,-100,97.5,162.5,172.5,-177.5,172.5,448,63,Open,F,Raw,SBD
5,Maria Dubenskaya,1988,RUS,62.84,150,-157.5,-157.5,150,110,115,-117.5,115,172.5,-182.5,-185,172.5,437.5,63,Open,F,Raw,SBD
6,Teresa Parsons,1991,CAN,60.64,130,145,152.5,152.5,80,87.5,-90,87.5,170,182.5,187.5,187.5,427.5,63,Open,F,Raw,SBD
7,Kelli Clarke,1980,AUS,62.52,147.5,160,-165,160,70,75,-77.5,75,167.5,177.5,190,190,425,63,Open,F,Raw,SBD
8,Tamara Thomsen,1982,GER,62.4,150,-160,-160,150,80,85,87.5,87.5,160,170,-180,170,407.5,63,Open,F,Raw,SBD
9,Sabrina Moore,1989,GBR,62.26,125,132.5,-137.5,132.5,80,85,90,90,165,177.5,-182.5,177.5,400,63,Open,F,Raw,SBD
10,Tanja Stenholdt Olsen,1990,DEN,62.1,125,132.5,140,140,70,75,-77.5,75,157.5,170,177.5,177.5,392.5,63,Open,F,Raw,SBD
11,Carolina Dillen,1983,NZL,62.72,137.5,145,-150,145,75,77.5,-80,77.5,155,165,-170,165,387.5,63,Open,F,Raw,SBD
12,Brónagh McPeake,1992,IRL,62.44,-135,135,152.5,152.5,57.5,62.5,-67.5,62.5,160,170,-177.5,170,385,63,Open,F,Raw,SBD
13,Laura Newman,1983,RSA,62.54,125,132.5,137.5,137.5,60,62.5,-65,62.5,155,165,167.5,167.5,367.5,63,Open,F,Raw,SBD
14,Louise Millar,1986,IRL,62.7,135,-142.5,142.5,142.5,70,75,80,80,145,-155,-155,145,367.5,63,Open,F,Raw,SBD
15,Karina Campos Murillo,1978,CRC,61.2,115,122.5,-125,122.5,70,77.5,-82.5,77.5,145,155,160,160,360,63,Open,F,Raw,SBD
16,Yui Maeno,1989,JPN,61.92,100,110,115,115,60,65,67.5,67.5,130,140,152.5,152.5,335,63,Open,F,Raw,SBD
DQ,Cícera Tavares,1976,BRA,62.58,165,-172.5,-172.5,165,82.5,87.5,90,90,-175,-175,-175,,,63,Open,F,Raw,SBD
1,Kimberly Walford,1978,USA,69,167.5,177.5,-185,177.5,-105,105,110,110,225,235,-243,235,522.5,72,Open,F,Raw,SBD
2,Isabella von Weissenberg,1989,SWE,71.2,180,188,-190,188,92.5,97.5,-100,97.5,185,195,200,200,485.5,72,Open,F,Raw,SBD
3,Rhaea Stinn,1988,CAN,71.7,165,175,180,180,110,115,117.5,117.5,165,172.5,-185,172.5,470,72,Open,F,Raw,SBD
4,Ashley Lester,1991,NZL,71.1,140,145,-147.5,145,100,110,115,115,-155,155,160,160,420,72,Open,F,Raw,SBD
5,Sarah Petchell,1979,AUS,71.6,137.5,145,-150,145,77.5,82.5,85,85,167.5,175,-185,175,405,72,Open,F,Raw,SBD
6,Ros Becker Birgit,1989,ISL,70.8,147.5,155,162.5,162.5,70,75,-77.5,75,150,157.5,162.5,162.5,400,72,Open,F,Raw,SBD
7,Louise Kenna,1982,IRL,71,140,145,150,150,70,75,77.5,77.5,162.5,167.5,172.5,172.5,400,72,Open,F,Raw,SBD
8,Tanya Bull,1983,GBR,70.3,140,147.5,152.5,152.5,70,-75,-75,70,167.5,175,-185,175,397.5,72,Open,F,Raw,SBD
9,Ai Takeuchi,1989,JPN,69.7,145,155,162.5,162.5,75,80,82.5,82.5,140,150,-155,150,395,72,Open,F,Raw,SBD
10,Shannon Pollock,1987,IRL,71.7,140,145,150,150,67.5,70,-72.5,70,165,-170,-170,165,385,72,Open,F,Raw,SBD
11,Kyoko Suzuki,1977,JPN,64.9,122.5,132.5,-137.5,132.5,60,65,67.5,67.5,130,140,145,145,345,72,Open,F,Raw,SBD
12,Saudi Tan Sze Lin,1995,SIN,70.1,115,125,-130,125,65,70,-75,70,125,135,145,145,340,72,Open,F,Raw,SBD
13,Corinne Bianca,1997,SIN,70.1,95,105,110,110,47.5,55,-60,55,110,117.5,-120,117.5,282.5,72,Open,F,Raw,SBD
1,Ana Rosa Castellain,1985,BRA,74.1,187.5,192.5,197.5,197.5,120,125,-127.5,125,192.5,-202.5,205,205,527.5,84,Open,F,Raw,SBD
2,Ielja Strik,1973,NED,83.66,190,197.5,200,200,130,135,-138,135,180,187.5,192.5,192.5,527.5,84,Open,F,Raw,SBD
3,Valeria Timoshchuk,1988,RUS,82.34,185,190,-195,190,107.5,110,115,115,180,182.5,-190,182.5,487.5,84,Open,F,Raw,SBD
4,Audrey Aboueme Ndeme Hanriette,1991,CMR,76.66,-177.5,177.5,190,190,92.5,-97.5,-100,92.5,192.5,200,-205,200,482.5,84,Open,F,Raw,SBD
5,Alicia Webb,1971,USA,83.34,177.5,182.5,-185,182.5,105,110,-112.5,110,172.5,182.5,187.5,187.5,480,84,Open,F,Raw,SBD
6,Clara Fridén,1992,SWE,81.98,155,-160,-160,155,105,110,112.5,112.5,-185,185,192.5,192.5,460,84,Open,F,Raw,SBD
7,Tasha Williams,1973,NZL,81.06,150,-160,-160,150,97.5,102.5,-105,102.5,195,205,-207.5,205,457.5,84,Open,F,Raw,SBD
8,Jessica Gilbert,1989,AUS,83.6,162.5,170,-172.5,170,102.5,-110,-110,102.5,155,-162.5,-162.5,155,427.5,84,Open,F,Raw,SBD
9,Caileigh Dade,1989,RSA,83.24,155,165,-172.5,165,67.5,72.5,-75,72.5,170,185,-195,185,422.5,84,Open,F,Raw,SBD
10,Monica Macias,1983,MEX,82.38,145,152.5,160,160,62.5,67.5,70,70,142.5,147.5,155,155,385,84,Open,F,Raw,SBD
1,Bonica Brown,1988,USA,134.3,250,262.5,-273,262.5,137.5,145,151,151,207.5,222.5,232.5,232.5,646,84+,Open,F,Raw,SBD
2,Hailey Kostynuik,1992,CAN,129.84,220,225,232.5,232.5,105,110,112.5,112.5,197.5,207.5,210,210,555,84+,Open,F,Raw,SBD
3,Fang-Yun Su,1992,TPE,119.7,-230,230,235,235,105,112.5,-117.5,112.5,190,202.5,205,205,552.5,84+,Open,F,Raw,SBD
4,Emelie Pettersson,1980,SWE,113.84,210,220,-225,220,125,130,-132.5,130,-200,-200,200,200,550,84+,Open,F,Raw,SBD
5,Najat Khoury,1982,AUS,131.78,215,225,232.5,232.5,95,100,102.5,102.5,195,205,-215,205,540,84+,Open,F,Raw,SBD
6,Matile Sitagata,1992,SAM,115.66,200,215,-225,215,60,75,85,85,215,-225,225,225,525,84+,Open,F,Raw,SBD
7,Anna Gavrilova,1988,RUS,114.98,180,190,200,200,110,115,117.5,117.5,180,190,-200,190,507.5,84+,Open,F,Raw,SBD
8,Camille Holland,1988,GBR,116.12,165,185,202.5,202.5,95,102.5,110,110,165,177.5,185,185,497.5,84+,Open,F,Raw,SBD
9,Anna Macnab,1984,GBR,105.8,175,187.5,197.5,197.5,85,90,-92.5,90,170,187.5,202.5,202.5,490,84+,Open,F,Raw,SBD
10,Joan Báez,1986,PUR,98.74,135,-147.5,-152.5,135,87.5,92.5,-97.5,92.5,135,145,152.5,152.5,380,84+,Open,F,Raw,SBD
11,Zuzana Bitterová,1984,CZE,112.6,135,-145,147.5,147.5,72.5,80,-85,80,130,142.5,-152.5,142.5,370,84+,Open,F,Raw,SBD
12,Lauren Rooney,1990,IRL,85.78,-135,-135,135,135,70,75,-80,75,145,155,-162.5,155,365,84+,Open,F,Raw,SBD
1,Olga Volynskaia,1999,RUS,42.26,80,-85,85,85,-55,55,57.5,57.5,100,105,107.5,107.5,250,43,Sub-Juniors,F,Raw,SBD
2,Alina Chashchyna,2001,BLR,42.76,85,-95,-95,85,50,-55,-55,50,102.5,107.5,110,110,245,43,Sub-Juniors,F,Raw,SBD
3,Brianna Morrison,2001,USA,41.94,85,90,-95,90,42.5,47.5,50,50,92.5,97.5,102.5,102.5,242.5,43,Sub-Juniors,F,Raw,SBD
4,Joan Masangkay,1998,PHI,41.74,80,-85,85,85,40,-42.5,-42.5,40,105,107.5,110.5,110.5,235.5,43,Sub-Juniors,F,Raw,SBD
5,Veronica Ompod,2000,PHI,41.48,82.5,87.5,90,90,42.5,45,-47.5,45,-100,100,-105,100,235,43,Sub-Juniors,F,Raw,SBD
6,Miya Shimizu,2000,JPN,42.64,50,55,-65,55,32.5,37.5,-40,37.5,70,-75,77.5,77.5,170,43,Sub-Juniors,F,Raw,SBD
1,Tatsiana Damashyna,1998,BLR,46.7,102.5,-107.5,107.5,107.5,52.5,57.5,60,60,115,122.5,-127.5,122.5,290,47,Sub-Juniors,F,Raw,SBD
2,Miyabi Kikuchi,1998,JPN,46.62,80,90,92.5,92.5,55,57.5,-60,57.5,110,115,-122.5,115,265,47,Sub-Juniors,F,Raw,SBD
3,Fanny Lamminen,2002,FIN,46.74,100,-105,-105,100,55,-60,-60,55,110,-115,-115,110,265,47,Sub-Juniors,F,Raw,SBD
1,Daria Lazebna,1998,UKR,51.64,115,-120,-121.5,115,75,80.5,-82,80.5,132.5,140,-150,140,335.5,52,Sub-Juniors,F,Raw,SBD
2,Dilyra Karimova,1998,KAZ,51.82,115,120,-122.5,120,75,80,81.5,81.5,125,132.5,-135,132.5,334,52,Sub-Juniors,F,Raw,SBD
3,Shoko Onishi,1999,JPN,51.32,115,121,125,125,52.5,-55,55,55,120,130,-132.5,130,310,52,Sub-Juniors,F,Raw,SBD
4,Reign Bautista Jeremy,1999,PHI,51.98,97.5,100,105,105,55,62.5,-65,62.5,-130,130,-135,130,297.5,52,Sub-Juniors,F,Raw,SBD
5,Caitlin Golden,1998,USA,51.52,-92.5,92.5,97.5,97.5,60,67.5,-70,67.5,107.5,112.5,-117.5,112.5,277.5,52,Sub-Juniors,F,Raw,SBD
1,Emily Gardner,2000,USA,55.32,127.5,133,138,138,72.5,77.5,-80,77.5,120,127.5,132.5,132.5,348,57,Sub-Juniors,F,Raw,SBD
2,Anna Mikryukova,1999,RUS,56.68,110,-115,115,115,77.5,82.5,85,85,120,125,130,130,330,57,Sub-Juniors,F,Raw,SBD
3,Veera Mäkelä,1998,FIN,56.96,85,90,95,95,50,52.5,-55,52.5,102.5,105,112.5,112.5,260,57,Sub-Juniors,F,Raw,SBD
4,Mira Kamberg,2000,FIN,54.9,82.5,87.5,90,90,57.5,62.5,65,65,95,102.5,-105,102.5,257.5,57,Sub-Juniors,F,Raw,SBD
5,Momo Urano,1998,JPN,54.6,67.5,72.5,77.5,77.5,40,45,-47.5,45,80,90,97.5,97.5,220,57,Sub-Juniors,F,Raw,SBD
1,Sonja-Stefanie Krueger,1999,GER,61.8,127.5,-135,135,135,77.5,82.5,-86,82.5,140,145,-159,145,362.5,63,Sub-Juniors,F,Raw,SBD
2,Jennica Baldridge,1998,USA,61.4,112.5,-125,125,125,62.5,70,75,75,135,150,157.5,157.5,357.5,63,Sub-Juniors,F,Raw,SBD
3,Samantha Thomasson,1998,AUS,62.5,120,-130,130,130,80,85.5,88,88,132.5,-137.5,137.5,137.5,355.5,63,Sub-Juniors,F,Raw,SBD
4,Heini Lipponen,2000,FIN,61.6,137.5,-142.5,-142.5,137.5,77.5,80,82.5,82.5,127.5,132.5,-137.5,132.5,352.5,63,Sub-Juniors,F,Raw,SBD
5,Yu Nomura,2000,JPN,61,80,95,100,100,52.5,57.5,60,60,120,135,142.5,142.5,302.5,63,Sub-Juniors,F,Raw,SBD
6,Alison Horne,1998,GBR,62.7,92.5,97.5,102.5,102.5,52.5,57.5,-62.5,57.5,132.5,-142.5,-145,132.5,292.5,63,Sub-Juniors,F,Raw,SBD
7,Caitlin Poxon,2000,RSA,61.8,80,85,90,90,-40,40,42.5,42.5,105,115,117.5,117.5,250,63,Sub-Juniors,F,Raw,SBD
1,Susanna Törrönen,1998,FIN,71.7,125,130,135,135,108,110.5,112,112,170,-172.5,-172.5,170,417,72,Sub-Juniors,F,Raw,SBD
2,Shelby Miles,1998,USA,71.7,122.5,132.5,137.5,137.5,80,90,92.5,92.5,157.5,170,172.5,172.5,402.5,72,Sub-Juniors,F,Raw,SBD
3,Camille Tremblay,1998,CAN,70.9,150,160.5,168,168,70,-75,-75,70,145,-157.5,-162.5,145,383,72,Sub-Juniors,F,Raw,SBD
4,Kloie Doublin,1999,USA,67.7,117.5,127.5,132.5,132.5,67.5,77.5,82.5,82.5,137.5,155,165,165,380,72,Sub-Juniors,F,Raw,SBD
5,Isabella Devetak,1998,AUS,70.7,117.5,125,130,130,67.5,70,72.5,72.5,127.5,137.5,142.5,142.5,345,72,Sub-Juniors,F,Raw,SBD
6,Bronwyn Marshall,1998,RSA,68.7,95,105,-110,105,47.5,-52.5,-52.5,47.5,110,-120,120,120,272.5,72,Sub-Juniors,F,Raw,SBD
1,Bethany Parker,1999,AUS,82.9,166,-171,,166,95,102.5,-109.5,102.5,175,185,-195.5,185,453.5,84,Sub-Juniors,F,Raw,SBD
2,Abigail McLean,1998,GBR,78.9,135,142.5,147.5,147.5,70,-75,-75,70,165,175,-177.5,175,392.5,84,Sub-Juniors,F,Raw,SBD
3,Sarah Hunt,2001,USA,82.7,102.5,115,122.5,122.5,50,60,65,65,115,127.5,135,135,322.5,84,Sub-Juniors,F,Raw,SBD
1,LeeAnn Hewitt,1999,USA,156.4,235.5,252.5,262.5,262.5,100,107.5,115,115,210,228,238,238,615.5,84+,Sub-Juniors,F,Raw,SBD
1,Stephanie Rattunde,1997,USA,42.78,77.5,82.5,85,85,60,65,70,70,115,122.5,-127.5,122.5,277.5,43,Juniors,F,Raw,SBD
2,Ekaterina Zhiltcova,1996,RUS,42.66,65,72.5,77.5,77.5,45,50,-52.5,50,97.5,102.5,107.5,107.5,235,43,Juniors,F,Raw,SBD
3,Vialeta Kudrevich,1995,BLR,42.92,80,-90,-90,80,52.5,55,-57.5,55,-90,90,-97.5,90,225,43,Juniors,F,Raw,SBD
1,Wendy Chan,1994,AUS,46.3,112.5,117.5,120,120,62.5,65,67.5,67.5,122.5,127.5,-137.5,127.5,315,47,Juniors,F,Raw,SBD
2,Krista Määttä,1995,FIN,46.9,87.5,92.5,95,95,57.5,60,-62.5,60,125,132.5,135,135,290,47,Juniors,F,Raw,SBD
3,Nathalie Sanchez,1994,USA,46.5,90,97.5,102.5,102.5,47.5,52.5,-55,52.5,102.5,112.5,-132.5,112.5,267.5,47,Juniors,F,Raw,SBD
4,Emily Przeslak,1993,GBR,45.9,77.5,85,-90,85,47.5,-50,-50,47.5,112.5,120,125,125,257.5,47,Juniors,F,Raw,SBD
5,Delaina Roul,1994,CAN,46.1,75,82.5,87.5,87.5,35,40,42.5,42.5,102.5,112.5,117.5,117.5,247.5,47,Juniors,F,Raw,SBD
1,Victoria Vargas,1994,USA,50.9,112.5,120,122.5,122.5,77.5,82.5,-85,82.5,137.5,147.5,152.5,152.5,357.5,52,Juniors,F,Raw,SBD
2,Inna Filimonova,1994,RUS,51.7,120,130,135,135,90,97.5,102.5,102.5,115,120,-122.5,120,357.5,52,Juniors,F,Raw,SBD
3,Emma McRae,1993,AUS,51.4,115,122.5,-130,122.5,70,72.5,-75,72.5,137.5,150,-152.5,150,345,52,Juniors,F,Raw,SBD
4,Catherine Smith,1995,GBR,51.9,112.5,117.5,122.5,122.5,55,-60,-60,55,150,160,165.5,165.5,343,52,Juniors,F,Raw,SBD
5,Samantha Solie,1994,CAN,51.4,112.5,120,127.5,127.5,65,70,72.5,72.5,120,127.5,-132.5,127.5,327.5,52,Juniors,F,Raw,SBD
6,Kathryn Chilton,1993,AUS,50.7,112.5,122.5,-132.5,122.5,55,60,62.5,62.5,120,135,140,140,325,52,Juniors,F,Raw,SBD
7,Anna Hourihane,1993,IRL,50.3,105,110,-112.5,110,67.5,70,-72.5,70,135,140,-147.5,140,320,52,Juniors,F,Raw,SBD
8,Nicola Paviglianiti,1994,CAN,50.6,115,-117.5,-117.5,115,60,62.5,-65,62.5,-125,125,135,135,312.5,52,Juniors,F,Raw,SBD
1,Victoria Jeppsson,1993,SWE,54.06,120,125,127.5,127.5,72.5,75,-77.5,75,155,157.5,-170.5,157.5,360,57,Juniors,F,Raw,SBD
2,Giuliana Nannetti,1993,AUS,56.84,122.5,127.5,130,130,72.5,75,77.5,77.5,145,152.5,-160,152.5,360,57,Juniors,F,Raw,SBD
3,Kelly Lien,1993,CAN,54.24,107.5,115,120,120,75,-80,-80,75,135,142.5,152.5,152.5,347.5,57,Juniors,F,Raw,SBD
4,Beverly DiPiero,1994,USA,55.64,115,122.5,127.5,127.5,62.5,67.5,-72.5,67.5,140,145,147.5,147.5,342.5,57,Juniors,F,Raw,SBD
5,Alice Hogg,1994,GBR,55.72,115,122.5,127.5,127.5,57.5,62.5,-67.5,62.5,140,147.5,-160,147.5,337.5,57,Juniors,F,Raw,SBD
6,Hannah Chan,1994,GBR,56.64,112.5,120,125,125,57.5,62.5,65,65,137.5,145,-150,145,335,57,Juniors,F,Raw,SBD
7,Ayaka Tsutsumi,1995,JPN,56.44,115,120,127.5,127.5,60,-65,65,65,135,-142.5,-150,135,327.5,57,Juniors,F,Raw,SBD
8,Alexandra Stodalka,1995,CAN,56.5,112.5,117.5,-122.5,117.5,75,-80,-80,75,125,130,135,135,327.5,57,Juniors,F,Raw,SBD
9,Summer Swansbury,1994,NZL,56.78,105,-110,-110,105,55,60,-65,60,130,145,-160,145,310,57,Juniors,F,Raw,SBD
10,Megan Leighton,1996,RSA,56.46,105,110,-115,110,57.5,-62.5,-65,57.5,122.5,-130,130,130,297.5,57,Juniors,F,Raw,SBD
11,Amy Donoghue,1997,IRL,56.08,95,100,-105,100,50,52.5,-55,52.5,127.5,132.5,140,140,292.5,57,Juniors,F,Raw,SBD
1,Victoria Liang,1993,USA,61.94,140,-147.5,147.5,147.5,-92.5,92.5,97.5,97.5,-162.5,162.5,165,165,410,63,Juniors,F,Raw,SBD
2,Schae Zarew,1994,AUS,61.56,137.5,147.5,-155,147.5,75,80,-82.5,80,160,170,-182.5,170,397.5,63,Juniors,F,Raw,SBD
3,Johanna Aguinaga,1993,ECU,62.88,140,147.5,-152.5,147.5,97.5,102.5,105,105,145,-155,-155,145,397.5,63,Juniors,F,Raw,SBD
4,Maruru Terahara,1993,JPN,62.56,150,160,-170,160,70,75,-77.5,75,152.5,160,-167.5,160,395,63,Juniors,F,Raw,SBD
5,Daria Grebenkova,1994,RUS,62.5,135,140,-145,140,85,90,92.5,92.5,140,-145,-145,140,372.5,63,Juniors,F,Raw,SBD
6,Maggie Morgan,1993,CAN,62.34,110,115,120,120,65,67.5,70,70,145,150,-152.5,150,340,63,Juniors,F,Raw,SBD
7,Catalina Pacce,1995,URU,62.36,112.5,-117.5,117.5,117.5,67.5,72.5,-77.5,72.5,125,132.5,-137.5,132.5,322.5,63,Juniors,F,Raw,SBD
8,Sasha Payne,1995,RSA,59.16,90,95,-100,95,50,52.5,55,55,120,-130,130,130,280,63,Juniors,F,Raw,SBD
1,Jessica Buettner,1995,CAN,71.46,145,155,162.5,162.5,72.5,77.5,80,80,185,195,202,202,444.5,72,Juniors,F,Raw,SBD
2,Carley Miller,1996,USA,71.5,152.5,-160,160,160,67.5,72.5,75,75,170,177.5,182.5,182.5,417.5,72,Juniors,F,Raw,SBD
3,Viktoryia Makarevich,1994,BLR,68,135,142.5,-145,142.5,85,87.5,-90,87.5,170,175,-185,175,405,72,Juniors,F,Raw,SBD
4,Kazusa Madoba,1996,JPN,67.72,150,155,-162.5,155,77.5,-80,-80,77.5,170,-175,-175,170,402.5,72,Juniors,F,Raw,SBD
5,Barbra Auva'a,1993,NZL,70.5,145,-155,-155,145,80,85,-90,85,155,-165,165,165,395,72,Juniors,F,Raw,SBD
6,Salla Koskinen,1993,FIN,70.96,132.5,137.5,142.5,142.5,70,75,-77.5,75,155,160,-170,160,377.5,72,Juniors,F,Raw,SBD
7,Courtney Miller,1993,AUS,70.06,127.5,137.5,-145,137.5,62.5,-67.5,-67.5,62.5,155,167.5,172.5,172.5,372.5,72,Juniors,F,Raw,SBD
8,Siuea Cocker,1993,NZL,70.78,-137.5,-137.5,137.5,137.5,60,65,-72.5,65,152.5,165,-177.5,165,367.5,72,Juniors,F,Raw,SBD
9,Tuulia Lohivuo,1997,FIN,68.72,130,-135,-135,130,85,-87.5,-87.5,85,150,-155,-155,150,365,72,Juniors,F,Raw,SBD
10,Amy Spencer,1993,GBR,69.92,122.5,130,135,135,70,75,-77.5,75,135,142.5,150,150,360,72,Juniors,F,Raw,SBD
1,Sara Cowan,1995,CAN,83.4,192.5,-197.5,197.5,197.5,102.5,107.5,110,110,200,210,212.5,212.5,520,84,Juniors,F,Raw,SBD
2,Julia Shropshire,1994,USA,81.7,157.5,165,170,170,77.5,82.5,85,85,155,170,175,175,430,84,Juniors,F,Raw,SBD
3,Charlie Chester,1996,GBR,82.9,147.5,-157.5,-157.5,147.5,75,80,-85,80,165,-172.5,-177.5,165,392.5,84,Juniors,F,Raw,SBD
4,Maaike De Vries,1994,NED,73.1,122.5,130,135,135,77.5,80,-85,80,120,127.5,-132.5,127.5,342.5,84,Juniors,F,Raw,SBD
5,Megan Davies,1996,GBR,72.9,105,112.5,117.5,117.5,65,70,-72.5,70,140,150,-155,150,337.5,84,Juniors,F,Raw,SBD
6,Kashka Hobbs,1993,RSA,72.4,105,115,120,120,60,-65,65,65,130,-145,145,145,330,84,Juniors,F,Raw,SBD
1,Yan-Fei Zhao,1995,AUS,96.1,200,212.5,217.5,217.5,92.5,97.5,100,100,185,200,207.5,207.5,525,84+,Juniors,F,Raw,SBD
2,Leigh Wetheridge,1994,GBR,99.8,157.5,170,180,180,87.5,95,97.5,97.5,180,190,200,200,477.5,84+,Juniors,F,Raw,SBD
3,Xeniya Okatenko,1994,KAZ,102.4,180,-187.5,187.5,187.5,-110,110,117.5,117.5,160,167.5,172.5,172.5,477.5,84+,Juniors,F,Raw,SBD
4,Heather Monk,1994,USA,108.2,155,165,172.5,172.5,62.5,67.5,72.5,72.5,170,180,187.5,187.5,432.5,84+,Juniors,F,Raw,SBD
5,Sharon Vaitupu,1993,NZL,132,170,-185,-185,170,60,-67.5,-67.5,60,180,190,-202.5,190,420,84+,Juniors,F,Raw,SBD
6,Tiarne Augustine,1994,AUS,122.4,155,-165,-165,155,105,112.5,-120,112.5,125,135,142.5,142.5,410,84+,Juniors,F,Raw,SBD
1,Lisa Randazzo,1976,USA,45.66,110,117.5,122.5,122.5,57.5,60,-62.5,60,125,132.5,137.5,137.5,320,47,Masters 1,F,Raw,SBD
2,Nathalie Feraud,1967,FRA,47,85,92.5,-97.5,92.5,65,67.5,-75,67.5,100,110,-122.5,110,270,47,Masters 1,F,Raw,SBD
1,Suzanne Hartwig-Gary,1968,USA,50.8,140,147.5,153,153,67.5,72.5,77.5,77.5,140,150,-160,150,380.5,52,Masters 1,F,Raw,SBD
2,Mune van Luen,1976,USA,51.54,117.5,120,125,125,60,62.5,-65,62.5,122.5,127.5,-130,127.5,315,52,Masters 1,F,Raw,SBD
3,Adriana Moreno Mena,1976,CRC,51.36,110,-117.5,117.5,117.5,60,-65,-65,60,110,120,-125,120,297.5,52,Masters 1,F,Raw,SBD
4,Marianne Bouvard,1976,FRA,51.16,92.5,97.5,-100,97.5,65,67.5,-70,67.5,102.5,110,-122.5,110,275,52,Masters 1,F,Raw,SBD
DQ,Carmen Fernandez,1976,PER,51.2,115,125,-130,125,-57.5,-65,-65,,145,155,160,160,,52,Masters 1,F,Raw,SBD
1,Nataliya Didyuk,1973,UKR,56.66,110,120,125,125,75,80,-82.5,80,135,145,150,150,355,57,Masters 1,F,Raw,SBD
2,Monica Rasmussen,1972,NOR,56.22,130,137.5,142.5,142.5,62.5,65,67.5,67.5,140,142.5,-145,142.5,352.5,57,Masters 1,F,Raw,SBD
3,Michelle Letcher,1970,RSA,55.72,115,117.5,120,120,62.5,-67.5,-67.5,62.5,155,162.5,165,165,347.5,57,Masters 1,F,Raw,SBD
4,Paula Roberts,1974,CAN,56.56,112.5,117.5,-122.5,117.5,62.5,67.5,-72.5,67.5,150,160,162.5,162.5,347.5,57,Masters 1,F,Raw,SBD
5,Mariko Tanaka,1974,JPN,53.96,115,120,125,125,-65,65,-70,65,-140,140,145,145,335,57,Masters 1,F,Raw,SBD
6,Pelİn Baykal,1973,GBR,56.02,105,112.5,-117.5,112.5,57.5,60,62.5,62.5,135,145,152.5,152.5,327.5,57,Masters 1,F,Raw,SBD
7,Natasha Day,1975,AUS,54.84,105,110,-115,110,55,-60,-60,55,130,142.5,150,150,315,57,Masters 1,F,Raw,SBD
8,Heather Ayles,1971,CAN,56.66,90,100,115,115,60,-65,-65,60,120,135,140,140,315,57,Masters 1,F,Raw,SBD
9,Janel Brown,1973,USA,56,105,115,-120,115,57.5,60,-62.5,60,125,132.5,-142.5,132.5,307.5,57,Masters 1,F,Raw,SBD
10,Viktoria Cederholm,1969,SWE,55.2,90,95,102.5,102.5,62.5,67.5,70,70,112.5,122.5,127.5,127.5,300,57,Masters 1,F,Raw,SBD
11,Lin Donevska,1969,AUS,56.48,80,87.5,90,90,67.5,-70,-72.5,67.5,105,115,120,120,277.5,57,Masters 1,F,Raw,SBD
12,Sabine Mouchet,1976,FRA,54.82,70,77.5,-82.5,77.5,45,47.5,-50,47.5,110,120,-130,120,245,57,Masters 1,F,Raw,SBD
1,Kris Kyriacou,1967,GBR,61.62,130,-135,135,135,75,80,85,85,135,-145,145,145,365,63,Masters 1,F,Raw,SBD
2,Marjaana Vähäsantanen,1976,FIN,62.36,132.5,-137.5,137.5,137.5,72.5,75,-77.5,75,140,145,-147.5,145,357.5,63,Masters 1,F,Raw,SBD
3,Isabelle Iliev,1967,FRA,62.36,120,125,-130,125,77.5,-80,-80,77.5,135,140,-142.5,140,342.5,63,Masters 1,F,Raw,SBD
4,Satu Luoto,1969,FIN,62.76,122.5,127.5,-132.5,127.5,82.5,85,-87.5,85,125,130,-132.5,130,342.5,63,Masters 1,F,Raw,SBD
5,Frances Manias,1973,CAN,61.92,120,-125,-125,120,65,70,-75,70,137.5,-145,-145,137.5,327.5,63,Masters 1,F,Raw,SBD
6,Véronique Descours,1971,FRA,59.66,82.5,92.5,100,100,65,70,-72.5,70,125,135,140,140,310,63,Masters 1,F,Raw,SBD
7,Maureen Ackerman,1975,RSA,62.22,107.5,110,112.5,112.5,60,-65,-65,60,132.5,137.5,-142.5,137.5,310,63,Masters 1,F,Raw,SBD
8,Ronel Reyneke,1969,RSA,61.58,95,100,-107.5,100,55,57.5,60,60,110,120,-125,120,280,63,Masters 1,F,Raw,SBD
1,Priscilla Ribic,1972,USA,70.04,147.5,165,175,175,97.5,107.5,-112.5,107.5,185,205,-217.5,205,487.5,72,Masters 1,F,Raw,SBD
2,Laura de Wet,1974,RSA,70.74,145,-150,-150,145,70,75,-77.5,75,162.5,170,-177.5,170,390,72,Masters 1,F,Raw,SBD
3,Leah Lutz,1975,USA,70.38,135,145,150,150,72.5,77.5,82.5,82.5,147.5,-155,155,155,387.5,72,Masters 1,F,Raw,SBD
4,Tui Katene,1973,NZL,70.12,120,-130,130,130,80,85,-87.5,85,140,-150,155,155,370,72,Masters 1,F,Raw,SBD
5,Angela Desjarlais,1976,CAN,71.36,125,132.5,140,140,85,90,92.5,92.5,125,135,137.5,137.5,370,72,Masters 1,F,Raw,SBD
6,Jeni Aulman,1972,GBR,69.12,110,117.5,-120,117.5,65,70,-72.5,70,150,157.5,160,160,347.5,72,Masters 1,F,Raw,SBD
7,Luisa Torres,1976,MEX,71.26,105,112.5,120,120,-60,65,-70,65,150,155,160,160,345,72,Masters 1,F,Raw,SBD
8,Vuokko Liljeström,1969,FIN,71.78,105,110,-115,110,60,-62.5,62.5,62.5,140,-147.5,150,150,322.5,72,Masters 1,F,Raw,SBD
9,Laure Romain Livy,1967,FRA,68.5,110,115,-122.5,115,50,52.5,55,55,-140,140,-150,140,310,72,Masters 1,F,Raw,SBD
10,Candice Firmani,1967,RSA,64.42,85,95,-100,95,50,-57.5,57.5,57.5,95,-107.5,-107.5,95,247.5,72,Masters 1,F,Raw,SBD
DQ,Pernilla Röhr,1972,SWE,71.72,-110,-110,-110,,67.5,70,-72.5,70,110,-117.5,,110,,72,Masters 1,F,Raw,SBD
1,Vicky Taylor-Hood,1975,CAN,76.38,130,137.5,142.5,142.5,75,80,82.5,82.5,170,180,-185,180,405,84,Masters 1,F,Raw,SBD
2,Diana Lopez,1971,MEX,78.64,140,145,-150,145,75,-77.5,77.5,77.5,155,-165,-165,155,377.5,84,Masters 1,F,Raw,SBD
3,Laufey Agnarsdóttir,1973,ISL,83.54,120,125,130,130,82.5,-85,85,85,-137.5,142.5,150,150,365,84,Masters 1,F,Raw,SBD
4,Malin Dalshoff,1970,SWE,80.26,120,-125,127.5,127.5,65,70,-72.5,70,140,147.5,-152.5,147.5,345,84,Masters 1,F,Raw,SBD
5,Catherine Buroughs,1976,GBR,78.38,120,127.5,132.5,132.5,52.5,57.5,60,60,132.5,142.5,-150,142.5,335,84,Masters 1,F,Raw,SBD
6,Jaqueline Pope,1972,GBR,82.32,95,105,110,110,65,70,72.5,72.5,130,140,-150,140,322.5,84,Masters 1,F,Raw,SBD
1,Katariina Nokua,1973,FIN,108.02,185,-200.5,-201.5,185,97.5,-102.5,-102.5,97.5,175,185,200,200,482.5,84+,Masters 1,F,Raw,SBD
2,Judith Reitmann,1967,URU,92.84,182.5,192.5,-201,192.5,100,-105,-105,100,175,182.5,187.5,187.5,480,84+,Masters 1,F,Raw,SBD
3,Kim LaPlante,1975,CAN,92.48,155,160,-162.5,160,82.5,85,-87.5,85,195,205,210,210,455,84+,Masters 1,F,Raw,SBD
4,Allison Snead,1975,USA,94.76,162.5,172.5,-180,172.5,82.5,87.5,-90,87.5,172.5,182.5,-197.5,182.5,442.5,84+,Masters 1,F,Raw,SBD
5,Bonney Rempel,1967,CAN,104.22,165,-172.5,-175,165,97.5,105,-107.5,105,150,-165,-165,150,420,84+,Masters 1,F,Raw,SBD
6,Kelly Phasey,1976,GBR,123.28,150,160,-167.5,160,90,95,-100,95,142.5,150,155,155,410,84+,Masters 1,F,Raw,SBD
7,Sarah Marsden,1972,GBR,102.32,150,157.5,160,160,77.5,85,-87.5,85,140,150,-155,150,395,84+,Masters 1,F,Raw,SBD
8,Katrina Evans,1973,AUS,104.5,140,-150,150,150,82.5,87.5,90,90,130,142.5,-147.5,142.5,382.5,84+,Masters 1,F,Raw,SBD
9,Rachel Duggan,1972,NZL,94.44,120,130,137.5,137.5,65,70,75,75,125,135,145,145,357.5,84+,Masters 1,F,Raw,SBD
10,Véronique Auclair,1968,FRA,94.82,-105,-105,110,110,-72.5,72.5,-75,72.5,125,127.5,-132.5,127.5,310,84+,Masters 1,F,Raw,SBD
1,Noriko Tsuji,1964,JPN,46.4,90,95,100,100,57.5,60,-62.5,60,115,120,-125.5,120,280,47,Masters 2,F,Raw,SBD
2,Mary Macken,1961,AUS,46.94,-100,100,105,105,47.5,50,-52.5,50,110,-115,-115,110,265,47,Masters 2,F,Raw,SBD
3,Shyami Murphy,1966,USA,46.24,-92.5,92.5,97.5,97.5,40,-42.5,-42.5,40,92.5,97.5,105,105,242.5,47,Masters 2,F,Raw,SBD
1,Jayne Egan,1963,CAN,51.1,95,100,105,105,55,57.5,60,60,117.5,127.5,-132.5,127.5,292.5,52,Masters 2,F,Raw,SBD
2,Véronique Gaillard,1966,FRA,51.8,100,-105,-105,100,50,-52.5,-52.5,50,85,95,-102.5,95,245,52,Masters 2,F,Raw,SBD
3,Carol Anthony,1966,RSA,51.7,62.5,-67.5,67.5,67.5,37.5,-42.5,-42.5,37.5,105,120,-130,120,225,52,Masters 2,F,Raw,SBD
1,Antoinette Kemper,1964,USA,55.54,112.5,119,123,123,67.5,72.5,-75,72.5,120,130,140,140,335.5,57,Masters 2,F,Raw,SBD
2,Helen Allen,1961,AUS,56.36,92.5,100,-102.5,100,60,65,-67.5,65,137.5,147.5,-155.5,147.5,312.5,57,Masters 2,F,Raw,SBD
3,Clair Angel,1963,AUS,56.44,95,100,-102.5,100,50,52.5,-55,52.5,130,140,142.5,142.5,295,57,Masters 2,F,Raw,SBD
4,Lynne Homan,1962,USA,56.48,87.5,92.5,-97.5,92.5,70,-72.5,-72.5,70,132.5,-137.5,-137.5,132.5,295,57,Masters 2,F,Raw,SBD
1,Cathleen Mele,1966,USA,61.88,95,100,105,105,60,65,-70,65,157.5,165.5,-175.5,165.5,335.5,63,Masters 2,F,Raw,SBD
2,Gayle Johnson,1964,CAN,62.82,105,110,-120,110,65,67.5,-70,67.5,145,155,-162.5,155,332.5,63,Masters 2,F,Raw,SBD
3,Lynda Banks,1965,GBR,62.36,95,100,105,105,57.5,62.5,-65,62.5,132.5,140,150,150,317.5,63,Masters 2,F,Raw,SBD
4,Daisy Blondan,1959,FRA,62.56,100,105,-107.5,105,70,72.5,-75,72.5,130,135,140,140,317.5,63,Masters 2,F,Raw,SBD
5,Deb Ellard,1958,CAN,61.14,95,100,-105,100,60,62.5,-65,62.5,120,125,-127.5,125,287.5,63,Masters 2,F,Raw,SBD
1,Suzanne LaForge,1959,USA,68,130,137.5,-148,137.5,70,75,77.5,77.5,167.5,177.5,185,185,400,72,Masters 2,F,Raw,SBD
2,Gro-Berit Stavheim,1964,NOR,71.4,115,120,122.5,122.5,67.5,70,72.5,72.5,142.5,147.5,-152.5,147.5,342.5,72,Masters 2,F,Raw,SBD
3,Susan Maguire,1962,AUS,71.9,102.5,107.5,-110,107.5,62.5,65,-67.5,65,122.5,127.5,130,130,302.5,72,Masters 2,F,Raw,SBD
4,Serena Perry,1965,NZL,70.7,95,102.5,107.5,107.5,55,-60,-62.5,55,117.5,127.5,-140,127.5,290,72,Masters 2,F,Raw,SBD
5,Beverly Sharpe,1963,CAN,70.7,110,115,-120,115,45,47.5,50,50,110,120,125,125,290,72,Masters 2,F,Raw,SBD
6,Melissa Wall,1966,GBR,70.1,80,-85,85,85,47.5,50,-52.5,50,127.5,-135,137.5,137.5,272.5,72,Masters 2,F,Raw,SBD
1,Shari Khawaja,1965,CAN,78,140,147.5,-152.5,147.5,90,95,97.5,97.5,145,157.5,165,165,410,84,Masters 2,F,Raw,SBD
2,Jackie Blasbery,1963,GBR,83.4,122.5,130,135,135,75,82.5,87.5,87.5,152.5,165,171,171,393.5,84,Masters 2,F,Raw,SBD
3,Genevieve Grant,1966,CAN,83.7,120,-130,-130,120,77.5,80,82.5,82.5,157.5,167.5,173,173,375.5,84,Masters 2,F,Raw,SBD
4,Lynda Whitehead,1965,AUS,76.2,117.5,127.5,132.5,132.5,-67.5,70,75,75,145,160,-171.5,160,367.5,84,Masters 2,F,Raw,SBD
5,Julia Fabrizi,1964,GBR,80.1,-107.5,107.5,115,115,75,80,82.5,82.5,140,147.5,160,160,357.5,84,Masters 2,F,Raw,SBD
6,Julie Henderson,1966,AUS,82.1,-120,120,130,130,72.5,75,-77.5,75,125,135,142.5,142.5,347.5,84,Masters 2,F,Raw,SBD
7,Anne Hellem,1961,NOR,81.4,90,100,102.5,102.5,47.5,52.5,-55,52.5,135,142.5,145,145,300,84,Masters 2,F,Raw,SBD
8,Stina Sundling,1964,SWE,76.8,90,97.5,102.5,102.5,-57.5,57.5,60,60,117.5,-127.5,-127.5,117.5,280,84,Masters 2,F,Raw,SBD
DQ,Diane Kuhn,1958,USA,83.8,-140,-140,-140,,-75,75,85,85,147.5,157.5,167.5,167.5,,84,Masters 2,F,Raw,SBD
1,Jose Potter,1963,CAN,108.1,137.5,145,152.5,152.5,72.5,77.5,82.5,82.5,170,180,187.5,187.5,422.5,84+,Masters 2,F,Raw,SBD
2,Nelson Pia Skovborg,1963,DEN,157.9,130,142.5,152.5,152.5,75,80,-85,80,-155,160,-170,160,392.5,84+,Masters 2,F,Raw,SBD
3,Stephanie Horlyck,1966,AUS,95.1,135,-150,-150,135,80,-87.5,-87.5,80,145,155,167.5,167.5,382.5,84+,Masters 2,F,Raw,SBD
4,Jeannine Cascadden,1963,USA,90,95,100,107.5,107.5,62.5,65,-67.5,65,107.5,115,120,120,292.5,84+,Masters 2,F,Raw,SBD
1,Hiroko Kikuiri,1949,JPN,46.64,75,80,-85,80,47.5,50,52.5,52.5,110,120,-123.5,120,252.5,47,Masters 3,F,Raw,SBD
1,Debra Ustar,1955,USA,51,52.5,60,65,65,32.5,37.5,-40,37.5,95,105,110,110,212.5,52,Masters 3,F,Raw,SBD
1,Glenda Presutti,1956,AUS,56.54,105,112.5,115,115,52.5,57.5,60,60,137.5,147.5,-150,147.5,322.5,57,Masters 3,F,Raw,SBD
2,Edith Guennec,1956,FRA,54.52,105,-110,110,110,50,55,-57.5,55,-145,145,150.5,150.5,315.5,57,Masters 3,F,Raw,SBD
3,Sigríður Dagmar Agnarsdóttir,1952,ISL,56.4,75,80,82.5,82.5,37.5,40,42.5,42.5,102.5,110,115,115,240,57,Masters 3,F,Raw,SBD
1,Tania Spak,1956,CAN,60.12,-87.5,-87.5,87.5,87.5,50,55,57.5,57.5,122.5,130,-135.5,130,275,63,Masters 3,F,Raw,SBD
2,Miyoko Nakajima,1948,JPN,62.42,90,95,-97.5,95,55,57.5,-60,57.5,115,-125,-130,115,267.5,63,Masters 3,F,Raw,SBD
3,Allison Barnard-Mahadeo,1955,CAN,61.32,-75,75,80,80,42.5,45,-47.5,45,-107.5,112.5,117.5,117.5,242.5,63,Masters 3,F,Raw,SBD
4,Denise Thomas,1950,USA,60.56,72.5,75,77.5,77.5,40,42.5,45,45,102.5,107.5,112.5,112.5,235,63,Masters 3,F,Raw,SBD
5,Ann Whitmarsh,1953,USA,61.8,60,65,70,70,32.5,35,-37.5,35,87.5,95,100,100,205,63,Masters 3,F,Raw,SBD
1,Alma Kimura,1954,USA,69.9,102.5,107.5,115.5,115.5,47.5,52.5,-55,52.5,132.5,142.5,-147.5,142.5,310.5,72,Masters 3,F,Raw,SBD
2,Gerri Howlet,1954,CAN,66.6,-85,85,-87.5,85,45,-47.5,47.5,47.5,115,120,125,125,257.5,72,Masters 3,F,Raw,SBD
3,Jane Freeman,1954,USA,70,80,87.5,-90,87.5,37.5,40,-42.5,40,92.5,97.5,102.5,102.5,230,72,Masters 3,F,Raw,SBD
4,Régine Billard,1955,FRA,66.8,65,70,-75,70,30,32.5,35,35,105,115,-122.5,115,220,72,Masters 3,F,Raw,SBD
DQ,Marie Christine Liege,1955,FRA,68.3,-90,-90,-90,,62.5,67.5,-72.5,67.5,110,120,-122.5,120,,72,Masters 3,F,Raw,SBD
1,Janice Francis,1955,USA,82.5,95,105,-110,105,50,55,57.5,57.5,112.5,120,132.5,132.5,295,84,Masters 3,F,Raw,SBD
2,Linda Rousseau,1953,CAN,79.8,-110,-110,110,110,60,-65,-65,60,92.5,107.5,122.5,122.5,292.5,84,Masters 3,F,Raw,SBD
1,Marit Pettersen,1954,NOR,91.5,105,110,115,115,-57.5,57.5,-62.5,57.5,137.5,145,-150,145,317.5,84+,Masters 3,F,Raw,SBD
2,Sylvia Gaucher,1953,CAN,97.1,-97.5,97.5,-105,97.5,55,-57.5,-57.5,55,130,140,145,145,297.5,84+,Masters 3,F,Raw,SBD
3,Janet Koenig,1954,USA,100.5,80,-90,-90,80,57.5,62.5,-65,62.5,137.5,142.5,-145,142.5,285,84+,Masters 3,F,Raw,SBD
1,Janice Shulman,1945,CAN,50.9,55,60,-62.5,60,37.5,40,42,42,80,88,93,93,195,52,Masters 4,F,Raw,SBD
2,Bebe Burns,1942,USA,51.24,50,55,-60.5,55,37.5,-40,-40,37.5,67.5,-72.5,-82.5,67.5,160,52,Masters 4,F,Raw,SBD
1,Helen White,1945,USA,60.8,75,-80,80,80,55,57.5,-60,57.5,105,112.5,117.5,117.5,255,63,Masters 4,F,Raw,SBD
1,Sharon Hernstadt,1939,USA,70.2,40,42.5,45,45,30,35,-40,35,80,85,90,90,170,72,Masters 4,F,Raw,SBD
1,Regina Hackney,1939,USA,82.8,67.5,72.5,-75,72.5,-47.5,47.5,50,50,112.5,,,112.5,235,84,Masters 4,F,Raw,SBD
